{
  "den": {
    "2016-09-09": {
      "wk": "1",
      "date": "2016-09-09",
      "op": "car",
      "victory": true,
      "score": [
        21,
        20
      ]
    },
    "2016-09-18": {
      "wk": "2",
      "date": "2016-09-18",
      "op": "ind",
      "victory": true,
      "score": [
        34,
        20
      ]
    },
    "2016-09-25": {
      "wk": "3",
      "date": "2016-09-25",
      "op": "cin",
      "victory": true,
      "score": [
        29,
        17
      ]
    },
    "2016-10-02": {
      "wk": "4",
      "date": "2016-10-02",
      "op": "tb",
      "victory": true,
      "score": [
        27,
        7
      ]
    },
    "2016-10-09": {
      "wk": "5",
      "date": "2016-10-09",
      "op": "atl",
      "victory": false,
      "score": [
        16,
        23
      ]
    },
    "2016-10-25": {
      "wk": "7",
      "date": "2016-10-25",
      "op": "hou",
      "victory": true,
      "score": [
        27,
        9
      ]
    },
    "2016-11-13": {
      "wk": "10",
      "date": "2016-11-13",
      "op": "no",
      "victory": true,
      "score": [
        25,
        23
      ]
    },
    "2016-11-28": {
      "wk": "12",
      "date": "2016-11-28",
      "op": "kc",
      "victory": false,
      "score": [
        27,
        30
      ]
    },
    "2016-12-04": {
      "wk": "13",
      "date": "2016-12-04",
      "op": "jax",
      "victory": true,
      "score": [
        20,
        10
      ]
    },
    "2016-12-11": {
      "wk": "14",
      "date": "2016-12-11",
      "op": "ten",
      "victory": false,
      "score": [
        10,
        13
      ]
    },
    "2016-12-18": {
      "wk": "15",
      "date": "2016-12-18",
      "op": "ne",
      "victory": false,
      "score": [
        3,
        16
      ]
    },
    "2016-12-26": {
      "wk": "16",
      "date": "2016-12-26",
      "op": "kc",
      "victory": false,
      "score": [
        10,
        33
      ]
    }
  },
  "chi": {
    "2016-09-11": {
      "wk": "1",
      "date": "2016-09-11",
      "op": "hou",
      "victory": false,
      "score": [
        14,
        23
      ]
    },
    "2016-09-20": {
      "wk": "2",
      "date": "2016-09-20",
      "op": "phi",
      "victory": false,
      "score": [
        14,
        29
      ]
    },
    "2016-09-26": {
      "wk": "3",
      "date": "2016-09-26",
      "op": "dal",
      "victory": false,
      "score": [
        17,
        31
      ]
    },
    "2016-10-02": {
      "wk": "4",
      "date": "2016-10-02",
      "op": "det",
      "victory": true,
      "score": [
        17,
        14
      ]
    },
    "2016-10-09": {
      "wk": "5",
      "date": "2016-10-09",
      "op": "ind",
      "victory": false,
      "score": [
        23,
        29
      ]
    },
    "2016-10-16": {
      "wk": "6",
      "date": "2016-10-16",
      "op": "jax",
      "victory": false,
      "score": [
        16,
        17
      ]
    },
    "2016-10-21": {
      "wk": "7",
      "date": "2016-10-21",
      "op": "gb",
      "victory": false,
      "score": [
        10,
        26
      ]
    },
    "2016-11-01": {
      "wk": "8",
      "date": "2016-11-01",
      "op": "min",
      "victory": true,
      "score": [
        20,
        10
      ]
    },
    "2016-11-13": {
      "wk": "10",
      "date": "2016-11-13",
      "op": "tb",
      "victory": false,
      "score": [
        10,
        36
      ]
    },
    "2016-11-20": {
      "wk": "11",
      "date": "2016-11-20",
      "op": "nyg",
      "victory": false,
      "score": [
        16,
        22
      ]
    },
    "2016-11-27": {
      "wk": "12",
      "date": "2016-11-27",
      "op": "ten",
      "victory": false,
      "score": [
        21,
        27
      ]
    },
    "2016-12-04": {
      "wk": "13",
      "date": "2016-12-04",
      "op": "sf",
      "victory": true,
      "score": [
        26,
        6
      ]
    },
    "2016-12-11": {
      "wk": "14",
      "date": "2016-12-11",
      "op": "det",
      "victory": false,
      "score": [
        17,
        20
      ]
    },
    "2016-12-18": {
      "wk": "15",
      "date": "2016-12-18",
      "op": "gb",
      "victory": false,
      "score": [
        27,
        30
      ]
    },
    "2016-12-24": {
      "wk": "16",
      "date": "2016-12-24",
      "op": "wsh",
      "victory": false,
      "score": [
        21,
        41
      ]
    },
    "2017-01-01": {
      "wk": "17",
      "date": "2017-01-01",
      "op": "min",
      "victory": false,
      "score": [
        10,
        38
      ]
    }
  },
  "dal": {
    "2016-09-11": {
      "wk": "1",
      "date": "2016-09-11",
      "op": "nyg",
      "victory": false,
      "score": [
        19,
        20
      ]
    },
    "2016-09-18": {
      "wk": "2",
      "date": "2016-09-18",
      "op": "wsh",
      "victory": true,
      "score": [
        27,
        23
      ]
    },
    "2016-09-26": {
      "wk": "3",
      "date": "2016-09-26",
      "op": "chi",
      "victory": true,
      "score": [
        31,
        17
      ]
    },
    "2016-10-02": {
      "wk": "4",
      "date": "2016-10-02",
      "op": "sf",
      "victory": true,
      "score": [
        24,
        17
      ]
    },
    "2016-10-09": {
      "wk": "5",
      "date": "2016-10-09",
      "op": "cin",
      "victory": true,
      "score": [
        28,
        14
      ]
    },
    "2016-10-16": {
      "wk": "6",
      "date": "2016-10-16",
      "op": "gb",
      "victory": true,
      "score": [
        30,
        16
      ]
    },
    "2016-10-31": {
      "wk": "8",
      "date": "2016-10-31",
      "op": "phi",
      "victory": true,
      "score": [
        29,
        23
      ]
    },
    "2016-11-06": {
      "wk": "9",
      "date": "2016-11-06",
      "op": "cle",
      "victory": true,
      "score": [
        35,
        10
      ]
    },
    "2016-11-13": {
      "wk": "10",
      "date": "2016-11-13",
      "op": "pit",
      "victory": true,
      "score": [
        35,
        30
      ]
    },
    "2016-11-20": {
      "wk": "11",
      "date": "2016-11-20",
      "op": "bal",
      "victory": true,
      "score": [
        27,
        17
      ]
    },
    "2016-11-24": {
      "wk": "12",
      "date": "2016-11-24",
      "op": "wsh",
      "victory": true,
      "score": [
        31,
        26
      ]
    },
    "2016-12-02": {
      "wk": "13",
      "date": "2016-12-02",
      "op": "min",
      "victory": true,
      "score": [
        17,
        15
      ]
    },
    "2016-12-12": {
      "wk": "14",
      "date": "2016-12-12",
      "op": "nyg",
      "victory": false,
      "score": [
        7,
        10
      ]
    },
    "2016-12-19": {
      "wk": "15",
      "date": "2016-12-19",
      "op": "tb",
      "victory": true,
      "score": [
        26,
        20
      ]
    },
    "2016-12-27": {
      "wk": "16",
      "date": "2016-12-27",
      "op": "det",
      "victory": true,
      "score": [
        42,
        21
      ]
    },
    "2017-01-01": {
      "wk": "17",
      "date": "2017-01-01",
      "op": "phi",
      "victory": false,
      "score": [
        13,
        27
      ]
    }
  },
  "lar": {
    "2016-09-13": {
      "wk": "1",
      "date": "2016-09-13",
      "op": "sf",
      "victory": false,
      "score": [
        0,
        28
      ]
    },
    "2016-09-18": {
      "wk": "2",
      "date": "2016-09-18",
      "op": "sea",
      "victory": true,
      "score": [
        9,
        3
      ]
    },
    "2016-09-25": {
      "wk": "3",
      "date": "2016-09-25",
      "op": "tb",
      "victory": true,
      "score": [
        37,
        32
      ]
    },
    "2016-10-02": {
      "wk": "4",
      "date": "2016-10-02",
      "op": "ari",
      "victory": true,
      "score": [
        17,
        13
      ]
    },
    "2016-10-09": {
      "wk": "5",
      "date": "2016-10-09",
      "op": "buf",
      "victory": false,
      "score": [
        19,
        30
      ]
    },
    "2016-10-16": {
      "wk": "6",
      "date": "2016-10-16",
      "op": "det",
      "victory": false,
      "score": [
        28,
        31
      ]
    },
    "2016-10-23": {
      "wk": "7",
      "date": "2016-10-23",
      "op": "nyg",
      "victory": false,
      "score": [
        10,
        17
      ]
    },
    "2016-11-06": {
      "wk": "9",
      "date": "2016-11-06",
      "op": "car",
      "victory": false,
      "score": [
        10,
        13
      ]
    },
    "2016-11-13": {
      "wk": "10",
      "date": "2016-11-13",
      "op": "nyj",
      "victory": true,
      "score": [
        9,
        6
      ]
    },
    "2016-11-20": {
      "wk": "11",
      "date": "2016-11-20",
      "op": "mia",
      "victory": false,
      "score": [
        10,
        14
      ]
    },
    "2016-11-27": {
      "wk": "12",
      "date": "2016-11-27",
      "op": "no",
      "victory": false,
      "score": [
        21,
        49
      ]
    },
    "2016-12-04": {
      "wk": "13",
      "date": "2016-12-04",
      "op": "ne",
      "victory": false,
      "score": [
        10,
        26
      ]
    },
    "2016-12-11": {
      "wk": "14",
      "date": "2016-12-11",
      "op": "atl",
      "victory": false,
      "score": [
        14,
        42
      ]
    },
    "2016-12-16": {
      "wk": "15",
      "date": "2016-12-16",
      "op": "sea",
      "victory": false,
      "score": [
        3,
        24
      ]
    },
    "2016-12-24": {
      "wk": "16",
      "date": "2016-12-24",
      "op": "sf",
      "victory": false,
      "score": [
        21,
        22
      ]
    },
    "2017-01-01": {
      "wk": "17",
      "date": "2017-01-01",
      "op": "ari",
      "victory": false,
      "score": [
        6,
        44
      ]
    }
  },
  "det": {
    "2016-09-11": {
      "wk": "1",
      "date": "2016-09-11",
      "op": "ind",
      "victory": true,
      "score": [
        39,
        35
      ]
    },
    "2016-09-18": {
      "wk": "2",
      "date": "2016-09-18",
      "op": "ten",
      "victory": false,
      "score": [
        15,
        16
      ]
    },
    "2016-09-25": {
      "wk": "3",
      "date": "2016-09-25",
      "op": "gb",
      "victory": false,
      "score": [
        27,
        34
      ]
    },
    "2016-10-02": {
      "wk": "4",
      "date": "2016-10-02",
      "op": "chi",
      "victory": false,
      "score": [
        14,
        17
      ]
    },
    "2016-10-09": {
      "wk": "5",
      "date": "2016-10-09",
      "op": "phi",
      "victory": true,
      "score": [
        24,
        23
      ]
    },
    "2016-10-16": {
      "wk": "6",
      "date": "2016-10-16",
      "op": "lar",
      "victory": true,
      "score": [
        31,
        28
      ]
    },
    "2016-10-23": {
      "wk": "7",
      "date": "2016-10-23",
      "op": "wsh",
      "victory": true,
      "score": [
        20,
        17
      ]
    },
    "2016-10-30": {
      "wk": "8",
      "date": "2016-10-30",
      "op": "hou",
      "victory": false,
      "score": [
        13,
        20
      ]
    },
    "2016-11-06": {
      "wk": "9",
      "date": "2016-11-06",
      "op": "min",
      "victory": true,
      "score": [
        22,
        16
      ]
    },
    "2016-11-20": {
      "wk": "11",
      "date": "2016-11-20",
      "op": "jax",
      "victory": true,
      "score": [
        26,
        19
      ]
    },
    "2016-11-24": {
      "wk": "12",
      "date": "2016-11-24",
      "op": "min",
      "victory": true,
      "score": [
        16,
        13
      ]
    },
    "2016-12-04": {
      "wk": "13",
      "date": "2016-12-04",
      "op": "no",
      "victory": true,
      "score": [
        28,
        13
      ]
    },
    "2016-12-11": {
      "wk": "14",
      "date": "2016-12-11",
      "op": "chi",
      "victory": true,
      "score": [
        20,
        17
      ]
    },
    "2016-12-18": {
      "wk": "15",
      "date": "2016-12-18",
      "op": "nyg",
      "victory": false,
      "score": [
        6,
        17
      ]
    },
    "2016-12-27": {
      "wk": "16",
      "date": "2016-12-27",
      "op": "dal",
      "victory": false,
      "score": [
        21,
        42
      ]
    },
    "2017-01-02": {
      "wk": "17",
      "date": "2017-01-02",
      "op": "gb",
      "victory": false,
      "score": [
        24,
        31
      ]
    }
  },
  "lac": {
    "2016-09-11": {
      "wk": "1",
      "date": "2016-09-11",
      "op": "kc",
      "victory": false,
      "score": [
        27,
        33
      ]
    },
    "2016-09-18": {
      "wk": "2",
      "date": "2016-09-18",
      "op": "jax",
      "victory": true,
      "score": [
        38,
        14
      ]
    },
    "2016-09-25": {
      "wk": "3",
      "date": "2016-09-25",
      "op": "ind",
      "victory": false,
      "score": [
        22,
        26
      ]
    },
    "2016-10-02": {
      "wk": "4",
      "date": "2016-10-02",
      "op": "no",
      "victory": false,
      "score": [
        34,
        35
      ]
    },
    "2016-10-14": {
      "wk": "6",
      "date": "2016-10-14",
      "op": "den",
      "victory": true,
      "score": [
        21,
        13
      ]
    },
    "2016-10-23": {
      "wk": "7",
      "date": "2016-10-23",
      "op": "atl",
      "victory": true,
      "score": [
        33,
        30
      ]
    },
    "2016-10-30": {
      "wk": "8",
      "date": "2016-10-30",
      "op": "den",
      "victory": false,
      "score": [
        19,
        27
      ]
    },
    "2016-11-06": {
      "wk": "9",
      "date": "2016-11-06",
      "op": "ten",
      "victory": true,
      "score": [
        43,
        35
      ]
    },
    "2016-11-13": {
      "wk": "10",
      "date": "2016-11-13",
      "op": "mia",
      "victory": false,
      "score": [
        24,
        31
      ]
    },
    "2016-11-27": {
      "wk": "12",
      "date": "2016-11-27",
      "op": "hou",
      "victory": true,
      "score": [
        21,
        13
      ]
    },
    "2016-12-04": {
      "wk": "13",
      "date": "2016-12-04",
      "op": "tb",
      "victory": false,
      "score": [
        21,
        28
      ]
    },
    "2016-12-11": {
      "wk": "14",
      "date": "2016-12-11",
      "op": "car",
      "victory": false,
      "score": [
        16,
        28
      ]
    },
    "2016-12-24": {
      "wk": "16",
      "date": "2016-12-24",
      "op": "cle",
      "victory": false,
      "score": [
        17,
        20
      ]
    },
    "2017-01-01": {
      "wk": "17",
      "date": "2017-01-01",
      "op": "kc",
      "victory": false,
      "score": [
        27,
        37
      ]
    }
  },
  "gb": {
    "2016-09-11": {
      "wk": "1",
      "date": "2016-09-11",
      "op": "jax",
      "victory": true,
      "score": [
        27,
        23
      ]
    },
    "2016-09-19": {
      "wk": "2",
      "date": "2016-09-19",
      "op": "min",
      "victory": false,
      "score": [
        14,
        17
      ]
    },
    "2016-09-25": {
      "wk": "3",
      "date": "2016-09-25",
      "op": "det",
      "victory": true,
      "score": [
        34,
        27
      ]
    },
    "2016-10-10": {
      "wk": "5",
      "date": "2016-10-10",
      "op": "nyg",
      "victory": true,
      "score": [
        23,
        16
      ]
    },
    "2016-10-16": {
      "wk": "6",
      "date": "2016-10-16",
      "op": "dal",
      "victory": false,
      "score": [
        16,
        30
      ]
    },
    "2016-10-21": {
      "wk": "7",
      "date": "2016-10-21",
      "op": "chi",
      "victory": true,
      "score": [
        26,
        10
      ]
    },
    "2016-10-30": {
      "wk": "8",
      "date": "2016-10-30",
      "op": "atl",
      "victory": false,
      "score": [
        32,
        33
      ]
    },
    "2016-11-06": {
      "wk": "9",
      "date": "2016-11-06",
      "op": "ind",
      "victory": false,
      "score": [
        26,
        31
      ]
    },
    "2016-11-13": {
      "wk": "10",
      "date": "2016-11-13",
      "op": "ten",
      "victory": false,
      "score": [
        25,
        47
      ]
    },
    "2016-11-21": {
      "wk": "11",
      "date": "2016-11-21",
      "op": "wsh",
      "victory": false,
      "score": [
        24,
        42
      ]
    },
    "2016-11-29": {
      "wk": "12",
      "date": "2016-11-29",
      "op": "phi",
      "victory": true,
      "score": [
        27,
        13
      ]
    },
    "2016-12-04": {
      "wk": "13",
      "date": "2016-12-04",
      "op": "hou",
      "victory": true,
      "score": [
        21,
        13
      ]
    },
    "2016-12-11": {
      "wk": "14",
      "date": "2016-12-11",
      "op": "sea",
      "victory": true,
      "score": [
        38,
        10
      ]
    },
    "2016-12-18": {
      "wk": "15",
      "date": "2016-12-18",
      "op": "chi",
      "victory": true,
      "score": [
        30,
        27
      ]
    },
    "2016-12-24": {
      "wk": "16",
      "date": "2016-12-24",
      "op": "min",
      "victory": true,
      "score": [
        38,
        25
      ]
    },
    "2017-01-02": {
      "wk": "17",
      "date": "2017-01-02",
      "op": "det",
      "victory": true,
      "score": [
        31,
        24
      ]
    }
  },
  "car": {
    "2016-09-09": {
      "wk": "1",
      "date": "2016-09-09",
      "op": "den",
      "victory": false,
      "score": [
        20,
        21
      ]
    },
    "2016-09-18": {
      "wk": "2",
      "date": "2016-09-18",
      "op": "sf",
      "victory": true,
      "score": [
        46,
        27
      ]
    },
    "2016-09-25": {
      "wk": "3",
      "date": "2016-09-25",
      "op": "min",
      "victory": false,
      "score": [
        10,
        22
      ]
    },
    "2016-10-02": {
      "wk": "4",
      "date": "2016-10-02",
      "op": "atl",
      "victory": false,
      "score": [
        33,
        48
      ]
    },
    "2016-10-11": {
      "wk": "5",
      "date": "2016-10-11",
      "op": "tb",
      "victory": false,
      "score": [
        14,
        17
      ]
    },
    "2016-10-16": {
      "wk": "6",
      "date": "2016-10-16",
      "op": "no",
      "victory": false,
      "score": [
        38,
        41
      ]
    },
    "2016-10-30": {
      "wk": "8",
      "date": "2016-10-30",
      "op": "ari",
      "victory": true,
      "score": [
        30,
        20
      ]
    },
    "2016-11-06": {
      "wk": "9",
      "date": "2016-11-06",
      "op": "lar",
      "victory": true,
      "score": [
        13,
        10
      ]
    },
    "2016-11-13": {
      "wk": "10",
      "date": "2016-11-13",
      "op": "kc",
      "victory": false,
      "score": [
        17,
        20
      ]
    },
    "2016-11-18": {
      "wk": "11",
      "date": "2016-11-18",
      "op": "no",
      "victory": true,
      "score": [
        23,
        20
      ]
    },
    "2016-12-05": {
      "wk": "13",
      "date": "2016-12-05",
      "op": "sea",
      "victory": false,
      "score": [
        7,
        40
      ]
    },
    "2016-12-20": {
      "wk": "15",
      "date": "2016-12-20",
      "op": "wsh",
      "victory": true,
      "score": [
        26,
        15
      ]
    },
    "2016-12-24": {
      "wk": "16",
      "date": "2016-12-24",
      "op": "atl",
      "victory": false,
      "score": [
        16,
        33
      ]
    },
    "2017-01-01": {
      "wk": "17",
      "date": "2017-01-01",
      "op": "tb",
      "victory": false,
      "score": [
        16,
        17
      ]
    }
  },
  "sf": {
    "2016-09-13": {
      "wk": "1",
      "date": "2016-09-13",
      "op": "lar",
      "victory": true,
      "score": [
        28,
        0
      ]
    },
    "2016-09-18": {
      "wk": "2",
      "date": "2016-09-18",
      "op": "car",
      "victory": false,
      "score": [
        27,
        46
      ]
    },
    "2016-09-25": {
      "wk": "3",
      "date": "2016-09-25",
      "op": "sea",
      "victory": false,
      "score": [
        18,
        37
      ]
    },
    "2016-10-02": {
      "wk": "4",
      "date": "2016-10-02",
      "op": "dal",
      "victory": false,
      "score": [
        17,
        24
      ]
    },
    "2016-10-07": {
      "wk": "5",
      "date": "2016-10-07",
      "op": "ari",
      "victory": false,
      "score": [
        21,
        33
      ]
    },
    "2016-10-16": {
      "wk": "6",
      "date": "2016-10-16",
      "op": "buf",
      "victory": false,
      "score": [
        16,
        45
      ]
    },
    "2016-10-23": {
      "wk": "7",
      "date": "2016-10-23",
      "op": "tb",
      "victory": false,
      "score": [
        17,
        34
      ]
    },
    "2016-11-06": {
      "wk": "9",
      "date": "2016-11-06",
      "op": "no",
      "victory": false,
      "score": [
        23,
        41
      ]
    },
    "2016-11-13": {
      "wk": "10",
      "date": "2016-11-13",
      "op": "ari",
      "victory": false,
      "score": [
        20,
        23
      ]
    },
    "2016-11-20": {
      "wk": "11",
      "date": "2016-11-20",
      "op": "ne",
      "victory": false,
      "score": [
        17,
        30
      ]
    },
    "2016-11-27": {
      "wk": "12",
      "date": "2016-11-27",
      "op": "mia",
      "victory": false,
      "score": [
        24,
        31
      ]
    },
    "2016-12-04": {
      "wk": "13",
      "date": "2016-12-04",
      "op": "chi",
      "victory": false,
      "score": [
        6,
        26
      ]
    },
    "2016-12-11": {
      "wk": "14",
      "date": "2016-12-11",
      "op": "nyj",
      "victory": false,
      "score": [
        17,
        23
      ]
    },
    "2016-12-18": {
      "wk": "15",
      "date": "2016-12-18",
      "op": "atl",
      "victory": false,
      "score": [
        13,
        41
      ]
    },
    "2016-12-24": {
      "wk": "16",
      "date": "2016-12-24",
      "op": "lar",
      "victory": true,
      "score": [
        22,
        21
      ]
    },
    "2017-01-01": {
      "wk": "17",
      "date": "2017-01-01",
      "op": "sea",
      "victory": false,
      "score": [
        23,
        25
      ]
    }
  },
  "min": {
    "2016-09-11": {
      "wk": "1",
      "date": "2016-09-11",
      "op": "ten",
      "victory": true,
      "score": [
        25,
        16
      ]
    },
    "2016-09-19": {
      "wk": "2",
      "date": "2016-09-19",
      "op": "gb",
      "victory": true,
      "score": [
        17,
        14
      ]
    },
    "2016-09-25": {
      "wk": "3",
      "date": "2016-09-25",
      "op": "car",
      "victory": true,
      "score": [
        22,
        10
      ]
    },
    "2016-10-04": {
      "wk": "4",
      "date": "2016-10-04",
      "op": "nyg",
      "victory": true,
      "score": [
        24,
        10
      ]
    },
    "2016-10-09": {
      "wk": "5",
      "date": "2016-10-09",
      "op": "hou",
      "victory": true,
      "score": [
        31,
        13
      ]
    },
    "2016-10-23": {
      "wk": "7",
      "date": "2016-10-23",
      "op": "phi",
      "victory": false,
      "score": [
        10,
        21
      ]
    },
    "2016-11-01": {
      "wk": "8",
      "date": "2016-11-01",
      "op": "chi",
      "victory": false,
      "score": [
        10,
        20
      ]
    },
    "2016-11-06": {
      "wk": "9",
      "date": "2016-11-06",
      "op": "det",
      "victory": false,
      "score": [
        16,
        22
      ]
    },
    "2016-11-13": {
      "wk": "10",
      "date": "2016-11-13",
      "op": "wsh",
      "victory": false,
      "score": [
        20,
        26
      ]
    },
    "2016-11-20": {
      "wk": "11",
      "date": "2016-11-20",
      "op": "ari",
      "victory": true,
      "score": [
        30,
        24
      ]
    },
    "2016-11-24": {
      "wk": "12",
      "date": "2016-11-24",
      "op": "det",
      "victory": false,
      "score": [
        13,
        16
      ]
    },
    "2016-12-02": {
      "wk": "13",
      "date": "2016-12-02",
      "op": "dal",
      "victory": false,
      "score": [
        15,
        17
      ]
    },
    "2016-12-11": {
      "wk": "14",
      "date": "2016-12-11",
      "op": "jax",
      "victory": true,
      "score": [
        25,
        16
      ]
    },
    "2016-12-18": {
      "wk": "15",
      "date": "2016-12-18",
      "op": "ind",
      "victory": false,
      "score": [
        6,
        34
      ]
    },
    "2016-12-24": {
      "wk": "16",
      "date": "2016-12-24",
      "op": "gb",
      "victory": false,
      "score": [
        25,
        38
      ]
    },
    "2017-01-01": {
      "wk": "17",
      "date": "2017-01-01",
      "op": "chi",
      "victory": true,
      "score": [
        38,
        10
      ]
    }
  },
  "kc": {
    "2016-09-18": {
      "wk": "2",
      "date": "2016-09-18",
      "op": "hou",
      "victory": false,
      "score": [
        12,
        19
      ]
    },
    "2016-09-25": {
      "wk": "3",
      "date": "2016-09-25",
      "op": "nyj",
      "victory": true,
      "score": [
        24,
        3
      ]
    },
    "2016-10-03": {
      "wk": "4",
      "date": "2016-10-03",
      "op": "pit",
      "victory": false,
      "score": [
        14,
        43
      ]
    },
    "2016-10-23": {
      "wk": "7",
      "date": "2016-10-23",
      "op": "no",
      "victory": true,
      "score": [
        27,
        21
      ]
    },
    "2016-10-30": {
      "wk": "8",
      "date": "2016-10-30",
      "op": "ind",
      "victory": true,
      "score": [
        30,
        14
      ]
    },
    "2016-11-06": {
      "wk": "9",
      "date": "2016-11-06",
      "op": "jax",
      "victory": true,
      "score": [
        19,
        14
      ]
    },
    "2016-11-13": {
      "wk": "10",
      "date": "2016-11-13",
      "op": "car",
      "victory": true,
      "score": [
        20,
        17
      ]
    },
    "2016-11-20": {
      "wk": "11",
      "date": "2016-11-20",
      "op": "tb",
      "victory": false,
      "score": [
        17,
        19
      ]
    },
    "2016-11-28": {
      "wk": "12",
      "date": "2016-11-28",
      "op": "den",
      "victory": true,
      "score": [
        30,
        27
      ]
    },
    "2016-12-04": {
      "wk": "13",
      "date": "2016-12-04",
      "op": "atl",
      "victory": true,
      "score": [
        29,
        28
      ]
    },
    "2016-12-18": {
      "wk": "15",
      "date": "2016-12-18",
      "op": "ten",
      "victory": false,
      "score": [
        17,
        19
      ]
    },
    "2016-12-26": {
      "wk": "16",
      "date": "2016-12-26",
      "op": "den",
      "victory": true,
      "score": [
        33,
        10
      ]
    }
  },
  "ind": {
    "2016-09-11": {
      "wk": "1",
      "date": "2016-09-11",
      "op": "det",
      "victory": false,
      "score": [
        35,
        39
      ]
    },
    "2016-09-18": {
      "wk": "2",
      "date": "2016-09-18",
      "op": "den",
      "victory": false,
      "score": [
        20,
        34
      ]
    },
    "2016-10-02": {
      "wk": "4",
      "date": "2016-10-02",
      "op": "jax",
      "victory": false,
      "score": [
        27,
        30
      ]
    },
    "2016-10-09": {
      "wk": "5",
      "date": "2016-10-09",
      "op": "chi",
      "victory": true,
      "score": [
        29,
        23
      ]
    },
    "2016-10-17": {
      "wk": "6",
      "date": "2016-10-17",
      "op": "hou",
      "victory": false,
      "score": [
        23,
        26
      ]
    },
    "2016-10-23": {
      "wk": "7",
      "date": "2016-10-23",
      "op": "ten",
      "victory": true,
      "score": [
        34,
        26
      ]
    },
    "2016-10-30": {
      "wk": "8",
      "date": "2016-10-30",
      "op": "kc",
      "victory": false,
      "score": [
        14,
        30
      ]
    },
    "2016-11-06": {
      "wk": "9",
      "date": "2016-11-06",
      "op": "gb",
      "victory": true,
      "score": [
        31,
        26
      ]
    },
    "2016-11-20": {
      "wk": "11",
      "date": "2016-11-20",
      "op": "ten",
      "victory": true,
      "score": [
        24,
        17
      ]
    },
    "2016-11-25": {
      "wk": "12",
      "date": "2016-11-25",
      "op": "pit",
      "victory": false,
      "score": [
        7,
        28
      ]
    },
    "2016-12-06": {
      "wk": "13",
      "date": "2016-12-06",
      "op": "nyj",
      "victory": true,
      "score": [
        41,
        10
      ]
    },
    "2016-12-11": {
      "wk": "14",
      "date": "2016-12-11",
      "op": "hou",
      "victory": false,
      "score": [
        17,
        22
      ]
    },
    "2016-12-18": {
      "wk": "15",
      "date": "2016-12-18",
      "op": "min",
      "victory": true,
      "score": [
        34,
        6
      ]
    },
    "2017-01-01": {
      "wk": "17",
      "date": "2017-01-01",
      "op": "jax",
      "victory": true,
      "score": [
        24,
        20
      ]
    }
  },
  "nyg": {
    "2016-09-11": {
      "wk": "1",
      "date": "2016-09-11",
      "op": "dal",
      "victory": true,
      "score": [
        20,
        19
      ]
    },
    "2016-09-18": {
      "wk": "2",
      "date": "2016-09-18",
      "op": "no",
      "victory": true,
      "score": [
        16,
        13
      ]
    },
    "2016-09-25": {
      "wk": "3",
      "date": "2016-09-25",
      "op": "wsh",
      "victory": false,
      "score": [
        27,
        29
      ]
    },
    "2016-10-04": {
      "wk": "4",
      "date": "2016-10-04",
      "op": "min",
      "victory": false,
      "score": [
        10,
        24
      ]
    },
    "2016-10-10": {
      "wk": "5",
      "date": "2016-10-10",
      "op": "gb",
      "victory": false,
      "score": [
        16,
        23
      ]
    },
    "2016-10-16": {
      "wk": "6",
      "date": "2016-10-16",
      "op": "bal",
      "victory": true,
      "score": [
        27,
        23
      ]
    },
    "2016-10-23": {
      "wk": "7",
      "date": "2016-10-23",
      "op": "lar",
      "victory": true,
      "score": [
        17,
        10
      ]
    },
    "2016-11-06": {
      "wk": "9",
      "date": "2016-11-06",
      "op": "phi",
      "victory": true,
      "score": [
        28,
        23
      ]
    },
    "2016-11-15": {
      "wk": "10",
      "date": "2016-11-15",
      "op": "cin",
      "victory": true,
      "score": [
        21,
        20
      ]
    },
    "2016-11-20": {
      "wk": "11",
      "date": "2016-11-20",
      "op": "chi",
      "victory": true,
      "score": [
        22,
        16
      ]
    },
    "2016-11-27": {
      "wk": "12",
      "date": "2016-11-27",
      "op": "cle",
      "victory": true,
      "score": [
        27,
        13
      ]
    },
    "2016-12-04": {
      "wk": "13",
      "date": "2016-12-04",
      "op": "pit",
      "victory": false,
      "score": [
        14,
        24
      ]
    },
    "2016-12-12": {
      "wk": "14",
      "date": "2016-12-12",
      "op": "dal",
      "victory": true,
      "score": [
        10,
        7
      ]
    },
    "2016-12-18": {
      "wk": "15",
      "date": "2016-12-18",
      "op": "det",
      "victory": true,
      "score": [
        17,
        6
      ]
    },
    "2016-12-23": {
      "wk": "16",
      "date": "2016-12-23",
      "op": "phi",
      "victory": false,
      "score": [
        19,
        24
      ]
    },
    "2017-01-01": {
      "wk": "17",
      "date": "2017-01-01",
      "op": "wsh",
      "victory": true,
      "score": [
        19,
        10
      ]
    }
  },
  "cin": {
    "2016-09-11": {
      "wk": "1",
      "date": "2016-09-11",
      "op": "nyj",
      "victory": true,
      "score": [
        23,
        22
      ]
    },
    "2016-09-18": {
      "wk": "2",
      "date": "2016-09-18",
      "op": "pit",
      "victory": false,
      "score": [
        16,
        24
      ]
    },
    "2016-09-25": {
      "wk": "3",
      "date": "2016-09-25",
      "op": "den",
      "victory": false,
      "score": [
        17,
        29
      ]
    },
    "2016-09-30": {
      "wk": "4",
      "date": "2016-09-30",
      "op": "mia",
      "victory": true,
      "score": [
        22,
        7
      ]
    },
    "2016-10-09": {
      "wk": "5",
      "date": "2016-10-09",
      "op": "dal",
      "victory": false,
      "score": [
        14,
        28
      ]
    },
    "2016-10-16": {
      "wk": "6",
      "date": "2016-10-16",
      "op": "ne",
      "victory": false,
      "score": [
        17,
        35
      ]
    },
    "2016-10-23": {
      "wk": "7",
      "date": "2016-10-23",
      "op": "cle",
      "victory": true,
      "score": [
        31,
        17
      ]
    },
    "2016-10-30": {
      "wk": "8",
      "date": "2016-10-30",
      "op": "wsh",
      "score": [
        27,
        27
      ]
    },
    "2016-11-15": {
      "wk": "10",
      "date": "2016-11-15",
      "op": "nyg",
      "victory": false,
      "score": [
        20,
        21
      ]
    },
    "2016-11-20": {
      "wk": "11",
      "date": "2016-11-20",
      "op": "buf",
      "victory": false,
      "score": [
        12,
        16
      ]
    },
    "2016-11-27": {
      "wk": "12",
      "date": "2016-11-27",
      "op": "bal",
      "victory": false,
      "score": [
        14,
        19
      ]
    },
    "2016-12-04": {
      "wk": "13",
      "date": "2016-12-04",
      "op": "phi",
      "victory": true,
      "score": [
        32,
        14
      ]
    },
    "2016-12-11": {
      "wk": "14",
      "date": "2016-12-11",
      "op": "cle",
      "victory": true,
      "score": [
        23,
        10
      ]
    },
    "2016-12-18": {
      "wk": "15",
      "date": "2016-12-18",
      "op": "pit",
      "victory": false,
      "score": [
        20,
        24
      ]
    },
    "2016-12-25": {
      "wk": "16",
      "date": "2016-12-25",
      "op": "hou",
      "victory": false,
      "score": [
        10,
        12
      ]
    },
    "2017-01-01": {
      "wk": "17",
      "date": "2017-01-01",
      "op": "bal",
      "victory": true,
      "score": [
        27,
        10
      ]
    }
  },
  "wsh": {
    "2016-09-13": {
      "wk": "1",
      "date": "2016-09-13",
      "op": "pit",
      "victory": false,
      "score": [
        16,
        38
      ]
    },
    "2016-09-18": {
      "wk": "2",
      "date": "2016-09-18",
      "op": "dal",
      "victory": false,
      "score": [
        23,
        27
      ]
    },
    "2016-09-25": {
      "wk": "3",
      "date": "2016-09-25",
      "op": "nyg",
      "victory": true,
      "score": [
        29,
        27
      ]
    },
    "2016-10-02": {
      "wk": "4",
      "date": "2016-10-02",
      "op": "cle",
      "victory": true,
      "score": [
        31,
        20
      ]
    },
    "2016-10-09": {
      "wk": "5",
      "date": "2016-10-09",
      "op": "bal",
      "victory": true,
      "score": [
        16,
        10
      ]
    },
    "2016-10-16": {
      "wk": "6",
      "date": "2016-10-16",
      "op": "phi",
      "victory": true,
      "score": [
        27,
        20
      ]
    },
    "2016-10-23": {
      "wk": "7",
      "date": "2016-10-23",
      "op": "det",
      "victory": false,
      "score": [
        17,
        20
      ]
    },
    "2016-10-30": {
      "wk": "8",
      "date": "2016-10-30",
      "op": "cin",
      "score": [
        27,
        27
      ]
    },
    "2016-11-13": {
      "wk": "10",
      "date": "2016-11-13",
      "op": "min",
      "victory": true,
      "score": [
        26,
        20
      ]
    },
    "2016-11-21": {
      "wk": "11",
      "date": "2016-11-21",
      "op": "gb",
      "victory": true,
      "score": [
        42,
        24
      ]
    },
    "2016-11-24": {
      "wk": "12",
      "date": "2016-11-24",
      "op": "dal",
      "victory": false,
      "score": [
        26,
        31
      ]
    },
    "2016-12-04": {
      "wk": "13",
      "date": "2016-12-04",
      "op": "ari",
      "victory": false,
      "score": [
        23,
        31
      ]
    },
    "2016-12-11": {
      "wk": "14",
      "date": "2016-12-11",
      "op": "phi",
      "victory": true,
      "score": [
        27,
        22
      ]
    },
    "2016-12-20": {
      "wk": "15",
      "date": "2016-12-20",
      "op": "car",
      "victory": false,
      "score": [
        15,
        26
      ]
    },
    "2016-12-24": {
      "wk": "16",
      "date": "2016-12-24",
      "op": "chi",
      "victory": true,
      "score": [
        41,
        21
      ]
    },
    "2017-01-01": {
      "wk": "17",
      "date": "2017-01-01",
      "op": "nyg",
      "victory": false,
      "score": [
        10,
        19
      ]
    }
  },
  "sea": {
    "2016-09-11": {
      "wk": "1",
      "date": "2016-09-11",
      "op": "mia",
      "victory": true,
      "score": [
        12,
        10
      ]
    },
    "2016-09-18": {
      "wk": "2",
      "date": "2016-09-18",
      "op": "lar",
      "victory": false,
      "score": [
        3,
        9
      ]
    },
    "2016-09-25": {
      "wk": "3",
      "date": "2016-09-25",
      "op": "sf",
      "victory": true,
      "score": [
        37,
        18
      ]
    },
    "2016-10-02": {
      "wk": "4",
      "date": "2016-10-02",
      "op": "nyj",
      "victory": true,
      "score": [
        27,
        17
      ]
    },
    "2016-10-16": {
      "wk": "6",
      "date": "2016-10-16",
      "op": "atl",
      "victory": true,
      "score": [
        26,
        24
      ]
    },
    "2016-10-24": {
      "wk": "7",
      "date": "2016-10-24",
      "op": "ari",
      "score": [
        6,
        6
      ]
    },
    "2016-10-30": {
      "wk": "8",
      "date": "2016-10-30",
      "op": "no",
      "victory": false,
      "score": [
        20,
        25
      ]
    },
    "2016-11-08": {
      "wk": "9",
      "date": "2016-11-08",
      "op": "buf",
      "victory": true,
      "score": [
        31,
        25
      ]
    },
    "2016-11-14": {
      "wk": "10",
      "date": "2016-11-14",
      "op": "ne",
      "victory": true,
      "score": [
        31,
        24
      ]
    },
    "2016-11-20": {
      "wk": "11",
      "date": "2016-11-20",
      "op": "phi",
      "victory": true,
      "score": [
        26,
        15
      ]
    },
    "2016-11-27": {
      "wk": "12",
      "date": "2016-11-27",
      "op": "tb",
      "victory": false,
      "score": [
        5,
        14
      ]
    },
    "2016-12-05": {
      "wk": "13",
      "date": "2016-12-05",
      "op": "car",
      "victory": true,
      "score": [
        40,
        7
      ]
    },
    "2016-12-11": {
      "wk": "14",
      "date": "2016-12-11",
      "op": "gb",
      "victory": false,
      "score": [
        10,
        38
      ]
    },
    "2016-12-16": {
      "wk": "15",
      "date": "2016-12-16",
      "op": "lar",
      "victory": true,
      "score": [
        24,
        3
      ]
    },
    "2016-12-24": {
      "wk": "16",
      "date": "2016-12-24",
      "op": "ari",
      "victory": false,
      "score": [
        31,
        34
      ]
    },
    "2017-01-01": {
      "wk": "17",
      "date": "2017-01-01",
      "op": "sf",
      "victory": true,
      "score": [
        25,
        23
      ]
    }
  },
  "bal": {
    "2016-09-11": {
      "wk": "1",
      "date": "2016-09-11",
      "op": "buf",
      "victory": true,
      "score": [
        13,
        7
      ]
    },
    "2016-09-18": {
      "wk": "2",
      "date": "2016-09-18",
      "op": "cle",
      "victory": true,
      "score": [
        25,
        20
      ]
    },
    "2016-09-25": {
      "wk": "3",
      "date": "2016-09-25",
      "op": "jax",
      "victory": true,
      "score": [
        19,
        17
      ]
    },
    "2016-10-09": {
      "wk": "5",
      "date": "2016-10-09",
      "op": "wsh",
      "victory": false,
      "score": [
        10,
        16
      ]
    },
    "2016-10-16": {
      "wk": "6",
      "date": "2016-10-16",
      "op": "nyg",
      "victory": false,
      "score": [
        23,
        27
      ]
    },
    "2016-10-23": {
      "wk": "7",
      "date": "2016-10-23",
      "op": "nyj",
      "victory": false,
      "score": [
        16,
        24
      ]
    },
    "2016-11-06": {
      "wk": "9",
      "date": "2016-11-06",
      "op": "pit",
      "victory": true,
      "score": [
        21,
        14
      ]
    },
    "2016-11-11": {
      "wk": "10",
      "date": "2016-11-11",
      "op": "cle",
      "victory": true,
      "score": [
        28,
        7
      ]
    },
    "2016-11-20": {
      "wk": "11",
      "date": "2016-11-20",
      "op": "dal",
      "victory": false,
      "score": [
        17,
        27
      ]
    },
    "2016-11-27": {
      "wk": "12",
      "date": "2016-11-27",
      "op": "cin",
      "victory": true,
      "score": [
        19,
        14
      ]
    },
    "2016-12-04": {
      "wk": "13",
      "date": "2016-12-04",
      "op": "mia",
      "victory": true,
      "score": [
        38,
        6
      ]
    },
    "2016-12-13": {
      "wk": "14",
      "date": "2016-12-13",
      "op": "ne",
      "victory": false,
      "score": [
        23,
        30
      ]
    },
    "2016-12-18": {
      "wk": "15",
      "date": "2016-12-18",
      "op": "phi",
      "victory": true,
      "score": [
        27,
        26
      ]
    },
    "2016-12-25": {
      "wk": "16",
      "date": "2016-12-25",
      "op": "pit",
      "victory": false,
      "score": [
        27,
        31
      ]
    },
    "2017-01-01": {
      "wk": "17",
      "date": "2017-01-01",
      "op": "cin",
      "victory": false,
      "score": [
        10,
        27
      ]
    }
  },
  "cle": {
    "2016-09-11": {
      "wk": "1",
      "date": "2016-09-11",
      "op": "phi",
      "victory": false,
      "score": [
        10,
        29
      ]
    },
    "2016-09-18": {
      "wk": "2",
      "date": "2016-09-18",
      "op": "bal",
      "victory": false,
      "score": [
        20,
        25
      ]
    },
    "2016-09-25": {
      "wk": "3",
      "date": "2016-09-25",
      "op": "mia",
      "victory": false,
      "score": [
        24,
        30
      ]
    },
    "2016-10-02": {
      "wk": "4",
      "date": "2016-10-02",
      "op": "wsh",
      "victory": false,
      "score": [
        20,
        31
      ]
    },
    "2016-10-09": {
      "wk": "5",
      "date": "2016-10-09",
      "op": "ne",
      "victory": false,
      "score": [
        13,
        33
      ]
    },
    "2016-10-16": {
      "wk": "6",
      "date": "2016-10-16",
      "op": "ten",
      "victory": false,
      "score": [
        26,
        28
      ]
    },
    "2016-10-23": {
      "wk": "7",
      "date": "2016-10-23",
      "op": "cin",
      "victory": false,
      "score": [
        17,
        31
      ]
    },
    "2016-10-30": {
      "wk": "8",
      "date": "2016-10-30",
      "op": "nyj",
      "victory": false,
      "score": [
        28,
        31
      ]
    },
    "2016-11-06": {
      "wk": "9",
      "date": "2016-11-06",
      "op": "dal",
      "victory": false,
      "score": [
        10,
        35
      ]
    },
    "2016-11-11": {
      "wk": "10",
      "date": "2016-11-11",
      "op": "bal",
      "victory": false,
      "score": [
        7,
        28
      ]
    },
    "2016-11-20": {
      "wk": "11",
      "date": "2016-11-20",
      "op": "pit",
      "victory": false,
      "score": [
        9,
        24
      ]
    },
    "2016-11-27": {
      "wk": "12",
      "date": "2016-11-27",
      "op": "nyg",
      "victory": false,
      "score": [
        13,
        27
      ]
    },
    "2016-12-11": {
      "wk": "14",
      "date": "2016-12-11",
      "op": "cin",
      "victory": false,
      "score": [
        10,
        23
      ]
    },
    "2016-12-18": {
      "wk": "15",
      "date": "2016-12-18",
      "op": "buf",
      "victory": false,
      "score": [
        13,
        33
      ]
    },
    "2017-01-01": {
      "wk": "17",
      "date": "2017-01-01",
      "op": "pit",
      "victory": false,
      "score": [
        24,
        27
      ]
    }
  },
  "phi": {
    "2016-09-11": {
      "wk": "1",
      "date": "2016-09-11",
      "op": "cle",
      "victory": true,
      "score": [
        29,
        10
      ]
    },
    "2016-09-20": {
      "wk": "2",
      "date": "2016-09-20",
      "op": "chi",
      "victory": true,
      "score": [
        29,
        14
      ]
    },
    "2016-09-25": {
      "wk": "3",
      "date": "2016-09-25",
      "op": "pit",
      "victory": true,
      "score": [
        34,
        3
      ]
    },
    "2016-10-09": {
      "wk": "5",
      "date": "2016-10-09",
      "op": "det",
      "victory": false,
      "score": [
        23,
        24
      ]
    },
    "2016-10-16": {
      "wk": "6",
      "date": "2016-10-16",
      "op": "wsh",
      "victory": false,
      "score": [
        20,
        27
      ]
    },
    "2016-10-23": {
      "wk": "7",
      "date": "2016-10-23",
      "op": "min",
      "victory": true,
      "score": [
        21,
        10
      ]
    },
    "2016-10-31": {
      "wk": "8",
      "date": "2016-10-31",
      "op": "dal",
      "victory": false,
      "score": [
        23,
        29
      ]
    },
    "2016-11-06": {
      "wk": "9",
      "date": "2016-11-06",
      "op": "nyg",
      "victory": false,
      "score": [
        23,
        28
      ]
    },
    "2016-11-13": {
      "wk": "10",
      "date": "2016-11-13",
      "op": "atl",
      "victory": true,
      "score": [
        24,
        15
      ]
    },
    "2016-11-20": {
      "wk": "11",
      "date": "2016-11-20",
      "op": "sea",
      "victory": false,
      "score": [
        15,
        26
      ]
    },
    "2016-11-29": {
      "wk": "12",
      "date": "2016-11-29",
      "op": "gb",
      "victory": false,
      "score": [
        13,
        27
      ]
    },
    "2016-12-04": {
      "wk": "13",
      "date": "2016-12-04",
      "op": "cin",
      "victory": false,
      "score": [
        14,
        32
      ]
    },
    "2016-12-11": {
      "wk": "14",
      "date": "2016-12-11",
      "op": "wsh",
      "victory": false,
      "score": [
        22,
        27
      ]
    },
    "2016-12-18": {
      "wk": "15",
      "date": "2016-12-18",
      "op": "bal",
      "victory": false,
      "score": [
        26,
        27
      ]
    },
    "2016-12-23": {
      "wk": "16",
      "date": "2016-12-23",
      "op": "nyg",
      "victory": true,
      "score": [
        24,
        19
      ]
    },
    "2017-01-01": {
      "wk": "17",
      "date": "2017-01-01",
      "op": "dal",
      "victory": true,
      "score": [
        27,
        13
      ]
    }
  },
  "pit": {
    "2016-09-13": {
      "wk": "1",
      "date": "2016-09-13",
      "op": "wsh",
      "victory": true,
      "score": [
        38,
        16
      ]
    },
    "2016-09-18": {
      "wk": "2",
      "date": "2016-09-18",
      "op": "cin",
      "victory": true,
      "score": [
        24,
        16
      ]
    },
    "2016-09-25": {
      "wk": "3",
      "date": "2016-09-25",
      "op": "phi",
      "victory": false,
      "score": [
        3,
        34
      ]
    },
    "2016-10-03": {
      "wk": "4",
      "date": "2016-10-03",
      "op": "kc",
      "victory": true,
      "score": [
        43,
        14
      ]
    },
    "2016-10-09": {
      "wk": "5",
      "date": "2016-10-09",
      "op": "nyj",
      "victory": true,
      "score": [
        31,
        13
      ]
    },
    "2016-10-16": {
      "wk": "6",
      "date": "2016-10-16",
      "op": "mia",
      "victory": false,
      "score": [
        15,
        30
      ]
    },
    "2016-10-23": {
      "wk": "7",
      "date": "2016-10-23",
      "op": "ne",
      "victory": false,
      "score": [
        16,
        27
      ]
    },
    "2016-11-06": {
      "wk": "9",
      "date": "2016-11-06",
      "op": "bal",
      "victory": false,
      "score": [
        14,
        21
      ]
    },
    "2016-11-13": {
      "wk": "10",
      "date": "2016-11-13",
      "op": "dal",
      "victory": false,
      "score": [
        30,
        35
      ]
    },
    "2016-11-20": {
      "wk": "11",
      "date": "2016-11-20",
      "op": "cle",
      "victory": true,
      "score": [
        24,
        9
      ]
    },
    "2016-11-25": {
      "wk": "12",
      "date": "2016-11-25",
      "op": "ind",
      "victory": true,
      "score": [
        28,
        7
      ]
    },
    "2016-12-04": {
      "wk": "13",
      "date": "2016-12-04",
      "op": "nyg",
      "victory": true,
      "score": [
        24,
        14
      ]
    },
    "2016-12-11": {
      "wk": "14",
      "date": "2016-12-11",
      "op": "buf",
      "victory": true,
      "score": [
        27,
        20
      ]
    },
    "2016-12-18": {
      "wk": "15",
      "date": "2016-12-18",
      "op": "cin",
      "victory": true,
      "score": [
        24,
        20
      ]
    },
    "2016-12-25": {
      "wk": "16",
      "date": "2016-12-25",
      "op": "bal",
      "victory": true,
      "score": [
        31,
        27
      ]
    },
    "2017-01-01": {
      "wk": "17",
      "date": "2017-01-01",
      "op": "cle",
      "victory": true,
      "score": [
        27,
        24
      ]
    }
  },
  "mia": {
    "2016-09-11": {
      "wk": "1",
      "date": "2016-09-11",
      "op": "sea",
      "victory": false,
      "score": [
        10,
        12
      ]
    },
    "2016-09-18": {
      "wk": "2",
      "date": "2016-09-18",
      "op": "ne",
      "victory": false,
      "score": [
        24,
        31
      ]
    },
    "2016-09-25": {
      "wk": "3",
      "date": "2016-09-25",
      "op": "cle",
      "victory": true,
      "score": [
        30,
        24
      ]
    },
    "2016-09-30": {
      "wk": "4",
      "date": "2016-09-30",
      "op": "cin",
      "victory": false,
      "score": [
        7,
        22
      ]
    },
    "2016-10-09": {
      "wk": "5",
      "date": "2016-10-09",
      "op": "ten",
      "victory": false,
      "score": [
        17,
        30
      ]
    },
    "2016-10-16": {
      "wk": "6",
      "date": "2016-10-16",
      "op": "pit",
      "victory": true,
      "score": [
        30,
        15
      ]
    },
    "2016-10-23": {
      "wk": "7",
      "date": "2016-10-23",
      "op": "buf",
      "victory": true,
      "score": [
        28,
        25
      ]
    },
    "2016-11-06": {
      "wk": "9",
      "date": "2016-11-06",
      "op": "nyj",
      "victory": true,
      "score": [
        27,
        23
      ]
    },
    "2016-11-20": {
      "wk": "11",
      "date": "2016-11-20",
      "op": "lar",
      "victory": true,
      "score": [
        14,
        10
      ]
    },
    "2016-11-27": {
      "wk": "12",
      "date": "2016-11-27",
      "op": "sf",
      "victory": true,
      "score": [
        31,
        24
      ]
    },
    "2016-12-04": {
      "wk": "13",
      "date": "2016-12-04",
      "op": "bal",
      "victory": false,
      "score": [
        6,
        38
      ]
    },
    "2016-12-11": {
      "wk": "14",
      "date": "2016-12-11",
      "op": "ari",
      "victory": true,
      "score": [
        26,
        23
      ]
    },
    "2016-12-18": {
      "wk": "15",
      "date": "2016-12-18",
      "op": "nyj",
      "victory": true,
      "score": [
        34,
        13
      ]
    },
    "2016-12-24": {
      "wk": "16",
      "date": "2016-12-24",
      "op": "buf",
      "victory": true,
      "score": [
        34,
        31
      ]
    },
    "2017-01-01": {
      "wk": "17",
      "date": "2017-01-01",
      "op": "ne",
      "victory": false,
      "score": [
        14,
        35
      ]
    }
  },
  "buf": {
    "2016-09-11": {
      "wk": "1",
      "date": "2016-09-11",
      "op": "bal",
      "victory": false,
      "score": [
        7,
        13
      ]
    },
    "2016-09-16": {
      "wk": "2",
      "date": "2016-09-16",
      "op": "nyj",
      "victory": false,
      "score": [
        31,
        37
      ]
    },
    "2016-09-25": {
      "wk": "3",
      "date": "2016-09-25",
      "op": "ari",
      "victory": true,
      "score": [
        33,
        18
      ]
    },
    "2016-10-02": {
      "wk": "4",
      "date": "2016-10-02",
      "op": "ne",
      "victory": true,
      "score": [
        16,
        0
      ]
    },
    "2016-10-09": {
      "wk": "5",
      "date": "2016-10-09",
      "op": "lar",
      "victory": true,
      "score": [
        30,
        19
      ]
    },
    "2016-10-16": {
      "wk": "6",
      "date": "2016-10-16",
      "op": "sf",
      "victory": true,
      "score": [
        45,
        16
      ]
    },
    "2016-10-23": {
      "wk": "7",
      "date": "2016-10-23",
      "op": "mia",
      "victory": false,
      "score": [
        25,
        28
      ]
    },
    "2016-10-30": {
      "wk": "8",
      "date": "2016-10-30",
      "op": "ne",
      "victory": false,
      "score": [
        25,
        41
      ]
    },
    "2016-11-08": {
      "wk": "9",
      "date": "2016-11-08",
      "op": "sea",
      "victory": false,
      "score": [
        25,
        31
      ]
    },
    "2016-11-20": {
      "wk": "11",
      "date": "2016-11-20",
      "op": "cin",
      "victory": true,
      "score": [
        16,
        12
      ]
    },
    "2016-11-27": {
      "wk": "12",
      "date": "2016-11-27",
      "op": "jax",
      "victory": true,
      "score": [
        28,
        21
      ]
    },
    "2016-12-11": {
      "wk": "14",
      "date": "2016-12-11",
      "op": "pit",
      "victory": false,
      "score": [
        20,
        27
      ]
    },
    "2016-12-18": {
      "wk": "15",
      "date": "2016-12-18",
      "op": "cle",
      "victory": true,
      "score": [
        33,
        13
      ]
    },
    "2016-12-24": {
      "wk": "16",
      "date": "2016-12-24",
      "op": "mia",
      "victory": false,
      "score": [
        31,
        34
      ]
    },
    "2017-01-01": {
      "wk": "17",
      "date": "2017-01-01",
      "op": "nyj",
      "victory": false,
      "score": [
        10,
        30
      ]
    }
  },
  "nyj": {
    "2016-09-11": {
      "wk": "1",
      "date": "2016-09-11",
      "op": "cin",
      "victory": false,
      "score": [
        22,
        23
      ]
    },
    "2016-09-16": {
      "wk": "2",
      "date": "2016-09-16",
      "op": "buf",
      "victory": true,
      "score": [
        37,
        31
      ]
    },
    "2016-09-25": {
      "wk": "3",
      "date": "2016-09-25",
      "op": "kc",
      "victory": false,
      "score": [
        3,
        24
      ]
    },
    "2016-10-02": {
      "wk": "4",
      "date": "2016-10-02",
      "op": "sea",
      "victory": false,
      "score": [
        17,
        27
      ]
    },
    "2016-10-09": {
      "wk": "5",
      "date": "2016-10-09",
      "op": "pit",
      "victory": false,
      "score": [
        13,
        31
      ]
    },
    "2016-10-18": {
      "wk": "6",
      "date": "2016-10-18",
      "op": "ari",
      "victory": false,
      "score": [
        3,
        28
      ]
    },
    "2016-10-23": {
      "wk": "7",
      "date": "2016-10-23",
      "op": "bal",
      "victory": true,
      "score": [
        24,
        16
      ]
    },
    "2016-10-30": {
      "wk": "8",
      "date": "2016-10-30",
      "op": "cle",
      "victory": true,
      "score": [
        31,
        28
      ]
    },
    "2016-11-06": {
      "wk": "9",
      "date": "2016-11-06",
      "op": "mia",
      "victory": false,
      "score": [
        23,
        27
      ]
    },
    "2016-11-13": {
      "wk": "10",
      "date": "2016-11-13",
      "op": "lar",
      "victory": false,
      "score": [
        6,
        9
      ]
    },
    "2016-11-27": {
      "wk": "12",
      "date": "2016-11-27",
      "op": "ne",
      "victory": false,
      "score": [
        17,
        22
      ]
    },
    "2016-12-06": {
      "wk": "13",
      "date": "2016-12-06",
      "op": "ind",
      "victory": false,
      "score": [
        10,
        41
      ]
    },
    "2016-12-11": {
      "wk": "14",
      "date": "2016-12-11",
      "op": "sf",
      "victory": true,
      "score": [
        23,
        17
      ]
    },
    "2016-12-18": {
      "wk": "15",
      "date": "2016-12-18",
      "op": "mia",
      "victory": false,
      "score": [
        13,
        34
      ]
    },
    "2016-12-24": {
      "wk": "16",
      "date": "2016-12-24",
      "op": "ne",
      "victory": false,
      "score": [
        3,
        41
      ]
    },
    "2017-01-01": {
      "wk": "17",
      "date": "2017-01-01",
      "op": "buf",
      "victory": true,
      "score": [
        30,
        10
      ]
    }
  },
  "ari": {
    "2016-09-12": {
      "wk": "1",
      "date": "2016-09-12",
      "op": "ne",
      "victory": false,
      "score": [
        21,
        23
      ]
    },
    "2016-09-18": {
      "wk": "2",
      "date": "2016-09-18",
      "op": "tb",
      "victory": true,
      "score": [
        40,
        7
      ]
    },
    "2016-09-25": {
      "wk": "3",
      "date": "2016-09-25",
      "op": "buf",
      "victory": false,
      "score": [
        18,
        33
      ]
    },
    "2016-10-02": {
      "wk": "4",
      "date": "2016-10-02",
      "op": "lar",
      "victory": false,
      "score": [
        13,
        17
      ]
    },
    "2016-10-07": {
      "wk": "5",
      "date": "2016-10-07",
      "op": "sf",
      "victory": true,
      "score": [
        33,
        21
      ]
    },
    "2016-10-18": {
      "wk": "6",
      "date": "2016-10-18",
      "op": "nyj",
      "victory": true,
      "score": [
        28,
        3
      ]
    },
    "2016-10-24": {
      "wk": "7",
      "date": "2016-10-24",
      "op": "sea",
      "score": [
        6,
        6
      ]
    },
    "2016-10-30": {
      "wk": "8",
      "date": "2016-10-30",
      "op": "car",
      "victory": false,
      "score": [
        20,
        30
      ]
    },
    "2016-11-13": {
      "wk": "10",
      "date": "2016-11-13",
      "op": "sf",
      "victory": true,
      "score": [
        23,
        20
      ]
    },
    "2016-11-20": {
      "wk": "11",
      "date": "2016-11-20",
      "op": "min",
      "victory": false,
      "score": [
        24,
        30
      ]
    },
    "2016-11-27": {
      "wk": "12",
      "date": "2016-11-27",
      "op": "atl",
      "victory": false,
      "score": [
        19,
        38
      ]
    },
    "2016-12-04": {
      "wk": "13",
      "date": "2016-12-04",
      "op": "wsh",
      "victory": true,
      "score": [
        31,
        23
      ]
    },
    "2016-12-11": {
      "wk": "14",
      "date": "2016-12-11",
      "op": "mia",
      "victory": false,
      "score": [
        23,
        26
      ]
    },
    "2016-12-18": {
      "wk": "15",
      "date": "2016-12-18",
      "op": "no",
      "victory": false,
      "score": [
        41,
        48
      ]
    },
    "2016-12-24": {
      "wk": "16",
      "date": "2016-12-24",
      "op": "sea",
      "victory": true,
      "score": [
        34,
        31
      ]
    },
    "2017-01-01": {
      "wk": "17",
      "date": "2017-01-01",
      "op": "lar",
      "victory": true,
      "score": [
        44,
        6
      ]
    }
  },
  "tb": {
    "2016-09-11": {
      "wk": "1",
      "date": "2016-09-11",
      "op": "atl",
      "victory": true,
      "score": [
        31,
        24
      ]
    },
    "2016-09-18": {
      "wk": "2",
      "date": "2016-09-18",
      "op": "ari",
      "victory": false,
      "score": [
        7,
        40
      ]
    },
    "2016-09-25": {
      "wk": "3",
      "date": "2016-09-25",
      "op": "lar",
      "victory": false,
      "score": [
        32,
        37
      ]
    },
    "2016-10-02": {
      "wk": "4",
      "date": "2016-10-02",
      "op": "den",
      "victory": false,
      "score": [
        7,
        27
      ]
    },
    "2016-10-11": {
      "wk": "5",
      "date": "2016-10-11",
      "op": "car",
      "victory": true,
      "score": [
        17,
        14
      ]
    },
    "2016-10-23": {
      "wk": "7",
      "date": "2016-10-23",
      "op": "sf",
      "victory": true,
      "score": [
        34,
        17
      ]
    },
    "2016-11-04": {
      "wk": "9",
      "date": "2016-11-04",
      "op": "atl",
      "victory": false,
      "score": [
        28,
        43
      ]
    },
    "2016-11-13": {
      "wk": "10",
      "date": "2016-11-13",
      "op": "chi",
      "victory": true,
      "score": [
        36,
        10
      ]
    },
    "2016-11-20": {
      "wk": "11",
      "date": "2016-11-20",
      "op": "kc",
      "victory": true,
      "score": [
        19,
        17
      ]
    },
    "2016-11-27": {
      "wk": "12",
      "date": "2016-11-27",
      "op": "sea",
      "victory": true,
      "score": [
        14,
        5
      ]
    },
    "2016-12-11": {
      "wk": "14",
      "date": "2016-12-11",
      "op": "no",
      "victory": true,
      "score": [
        16,
        11
      ]
    },
    "2016-12-19": {
      "wk": "15",
      "date": "2016-12-19",
      "op": "dal",
      "victory": false,
      "score": [
        20,
        26
      ]
    },
    "2016-12-24": {
      "wk": "16",
      "date": "2016-12-24",
      "op": "no",
      "victory": false,
      "score": [
        24,
        31
      ]
    },
    "2017-01-01": {
      "wk": "17",
      "date": "2017-01-01",
      "op": "car",
      "victory": true,
      "score": [
        17,
        16
      ]
    }
  },
  "ne": {
    "2016-09-12": {
      "wk": "1",
      "date": "2016-09-12",
      "op": "ari",
      "victory": true,
      "score": [
        23,
        21
      ]
    },
    "2016-09-18": {
      "wk": "2",
      "date": "2016-09-18",
      "op": "mia",
      "victory": true,
      "score": [
        31,
        24
      ]
    },
    "2016-09-23": {
      "wk": "3",
      "date": "2016-09-23",
      "op": "hou",
      "victory": true,
      "score": [
        27,
        0
      ]
    },
    "2016-10-02": {
      "wk": "4",
      "date": "2016-10-02",
      "op": "buf",
      "victory": false,
      "score": [
        0,
        16
      ]
    },
    "2016-10-09": {
      "wk": "5",
      "date": "2016-10-09",
      "op": "cle",
      "victory": true,
      "score": [
        33,
        13
      ]
    },
    "2016-10-16": {
      "wk": "6",
      "date": "2016-10-16",
      "op": "cin",
      "victory": true,
      "score": [
        35,
        17
      ]
    },
    "2016-10-23": {
      "wk": "7",
      "date": "2016-10-23",
      "op": "pit",
      "victory": true,
      "score": [
        27,
        16
      ]
    },
    "2016-10-30": {
      "wk": "8",
      "date": "2016-10-30",
      "op": "buf",
      "victory": true,
      "score": [
        41,
        25
      ]
    },
    "2016-11-14": {
      "wk": "10",
      "date": "2016-11-14",
      "op": "sea",
      "victory": false,
      "score": [
        24,
        31
      ]
    },
    "2016-11-20": {
      "wk": "11",
      "date": "2016-11-20",
      "op": "sf",
      "victory": true,
      "score": [
        30,
        17
      ]
    },
    "2016-11-27": {
      "wk": "12",
      "date": "2016-11-27",
      "op": "nyj",
      "victory": true,
      "score": [
        22,
        17
      ]
    },
    "2016-12-04": {
      "wk": "13",
      "date": "2016-12-04",
      "op": "lar",
      "victory": true,
      "score": [
        26,
        10
      ]
    },
    "2016-12-13": {
      "wk": "14",
      "date": "2016-12-13",
      "op": "bal",
      "victory": true,
      "score": [
        30,
        23
      ]
    },
    "2016-12-18": {
      "wk": "15",
      "date": "2016-12-18",
      "op": "den",
      "victory": true,
      "score": [
        16,
        3
      ]
    },
    "2016-12-24": {
      "wk": "16",
      "date": "2016-12-24",
      "op": "nyj",
      "victory": true,
      "score": [
        41,
        3
      ]
    },
    "2017-01-01": {
      "wk": "17",
      "date": "2017-01-01",
      "op": "mia",
      "victory": true,
      "score": [
        35,
        14
      ]
    }
  },
  "jax": {
    "2016-09-11": {
      "wk": "1",
      "date": "2016-09-11",
      "op": "gb",
      "victory": false,
      "score": [
        23,
        27
      ]
    },
    "2016-09-25": {
      "wk": "3",
      "date": "2016-09-25",
      "op": "bal",
      "victory": false,
      "score": [
        17,
        19
      ]
    },
    "2016-10-02": {
      "wk": "4",
      "date": "2016-10-02",
      "op": "ind",
      "victory": true,
      "score": [
        30,
        27
      ]
    },
    "2016-10-16": {
      "wk": "6",
      "date": "2016-10-16",
      "op": "chi",
      "victory": true,
      "score": [
        17,
        16
      ]
    },
    "2016-10-28": {
      "wk": "8",
      "date": "2016-10-28",
      "op": "ten",
      "victory": false,
      "score": [
        22,
        36
      ]
    },
    "2016-11-06": {
      "wk": "9",
      "date": "2016-11-06",
      "op": "kc",
      "victory": false,
      "score": [
        14,
        19
      ]
    },
    "2016-11-13": {
      "wk": "10",
      "date": "2016-11-13",
      "op": "hou",
      "victory": false,
      "score": [
        21,
        24
      ]
    },
    "2016-11-20": {
      "wk": "11",
      "date": "2016-11-20",
      "op": "det",
      "victory": false,
      "score": [
        19,
        26
      ]
    },
    "2016-11-27": {
      "wk": "12",
      "date": "2016-11-27",
      "op": "buf",
      "victory": false,
      "score": [
        21,
        28
      ]
    },
    "2016-12-04": {
      "wk": "13",
      "date": "2016-12-04",
      "op": "den",
      "victory": false,
      "score": [
        10,
        20
      ]
    },
    "2016-12-11": {
      "wk": "14",
      "date": "2016-12-11",
      "op": "min",
      "victory": false,
      "score": [
        16,
        25
      ]
    },
    "2016-12-18": {
      "wk": "15",
      "date": "2016-12-18",
      "op": "hou",
      "victory": false,
      "score": [
        20,
        21
      ]
    },
    "2016-12-24": {
      "wk": "16",
      "date": "2016-12-24",
      "op": "ten",
      "victory": true,
      "score": [
        38,
        17
      ]
    },
    "2017-01-01": {
      "wk": "17",
      "date": "2017-01-01",
      "op": "ind",
      "victory": false,
      "score": [
        20,
        24
      ]
    }
  },
  "no": {
    "2016-09-18": {
      "wk": "2",
      "date": "2016-09-18",
      "op": "nyg",
      "victory": false,
      "score": [
        13,
        16
      ]
    },
    "2016-09-27": {
      "wk": "3",
      "date": "2016-09-27",
      "op": "atl",
      "victory": false,
      "score": [
        32,
        45
      ]
    },
    "2016-10-16": {
      "wk": "6",
      "date": "2016-10-16",
      "op": "car",
      "victory": true,
      "score": [
        41,
        38
      ]
    },
    "2016-10-23": {
      "wk": "7",
      "date": "2016-10-23",
      "op": "kc",
      "victory": false,
      "score": [
        21,
        27
      ]
    },
    "2016-10-30": {
      "wk": "8",
      "date": "2016-10-30",
      "op": "sea",
      "victory": true,
      "score": [
        25,
        20
      ]
    },
    "2016-11-06": {
      "wk": "9",
      "date": "2016-11-06",
      "op": "sf",
      "victory": true,
      "score": [
        41,
        23
      ]
    },
    "2016-11-13": {
      "wk": "10",
      "date": "2016-11-13",
      "op": "den",
      "victory": false,
      "score": [
        23,
        25
      ]
    },
    "2016-11-18": {
      "wk": "11",
      "date": "2016-11-18",
      "op": "car",
      "victory": false,
      "score": [
        20,
        23
      ]
    },
    "2016-11-27": {
      "wk": "12",
      "date": "2016-11-27",
      "op": "lar",
      "victory": true,
      "score": [
        49,
        21
      ]
    },
    "2016-12-04": {
      "wk": "13",
      "date": "2016-12-04",
      "op": "det",
      "victory": false,
      "score": [
        13,
        28
      ]
    },
    "2016-12-11": {
      "wk": "14",
      "date": "2016-12-11",
      "op": "tb",
      "victory": false,
      "score": [
        11,
        16
      ]
    },
    "2016-12-18": {
      "wk": "15",
      "date": "2016-12-18",
      "op": "ari",
      "victory": true,
      "score": [
        48,
        41
      ]
    },
    "2016-12-24": {
      "wk": "16",
      "date": "2016-12-24",
      "op": "tb",
      "victory": true,
      "score": [
        31,
        24
      ]
    },
    "2017-01-01": {
      "wk": "17",
      "date": "2017-01-01",
      "op": "atl",
      "victory": false,
      "score": [
        32,
        38
      ]
    }
  },
  "atl": {
    "2016-09-11": {
      "wk": "1",
      "date": "2016-09-11",
      "op": "tb",
      "victory": false,
      "score": [
        24,
        31
      ]
    },
    "2016-09-27": {
      "wk": "3",
      "date": "2016-09-27",
      "op": "no",
      "victory": true,
      "score": [
        45,
        32
      ]
    },
    "2016-10-02": {
      "wk": "4",
      "date": "2016-10-02",
      "op": "car",
      "victory": true,
      "score": [
        48,
        33
      ]
    },
    "2016-10-09": {
      "wk": "5",
      "date": "2016-10-09",
      "op": "den",
      "victory": true,
      "score": [
        23,
        16
      ]
    },
    "2016-10-16": {
      "wk": "6",
      "date": "2016-10-16",
      "op": "sea",
      "victory": false,
      "score": [
        24,
        26
      ]
    },
    "2016-10-30": {
      "wk": "8",
      "date": "2016-10-30",
      "op": "gb",
      "victory": true,
      "score": [
        33,
        32
      ]
    },
    "2016-11-04": {
      "wk": "9",
      "date": "2016-11-04",
      "op": "tb",
      "victory": true,
      "score": [
        43,
        28
      ]
    },
    "2016-11-13": {
      "wk": "10",
      "date": "2016-11-13",
      "op": "phi",
      "victory": false,
      "score": [
        15,
        24
      ]
    },
    "2016-11-27": {
      "wk": "12",
      "date": "2016-11-27",
      "op": "ari",
      "victory": true,
      "score": [
        38,
        19
      ]
    },
    "2016-12-04": {
      "wk": "13",
      "date": "2016-12-04",
      "op": "kc",
      "victory": false,
      "score": [
        28,
        29
      ]
    },
    "2016-12-11": {
      "wk": "14",
      "date": "2016-12-11",
      "op": "lar",
      "victory": true,
      "score": [
        42,
        14
      ]
    },
    "2016-12-18": {
      "wk": "15",
      "date": "2016-12-18",
      "op": "sf",
      "victory": true,
      "score": [
        41,
        13
      ]
    },
    "2016-12-24": {
      "wk": "16",
      "date": "2016-12-24",
      "op": "car",
      "victory": true,
      "score": [
        33,
        16
      ]
    },
    "2017-01-01": {
      "wk": "17",
      "date": "2017-01-01",
      "op": "no",
      "victory": true,
      "score": [
        38,
        32
      ]
    }
  },
  "ten": {
    "2016-09-11": {
      "wk": "1",
      "date": "2016-09-11",
      "op": "min",
      "victory": false,
      "score": [
        16,
        25
      ]
    },
    "2016-09-18": {
      "wk": "2",
      "date": "2016-09-18",
      "op": "det",
      "victory": true,
      "score": [
        16,
        15
      ]
    },
    "2016-10-02": {
      "wk": "4",
      "date": "2016-10-02",
      "op": "hou",
      "victory": false,
      "score": [
        20,
        27
      ]
    },
    "2016-10-09": {
      "wk": "5",
      "date": "2016-10-09",
      "op": "mia",
      "victory": true,
      "score": [
        30,
        17
      ]
    },
    "2016-10-16": {
      "wk": "6",
      "date": "2016-10-16",
      "op": "cle",
      "victory": true,
      "score": [
        28,
        26
      ]
    },
    "2016-10-23": {
      "wk": "7",
      "date": "2016-10-23",
      "op": "ind",
      "victory": false,
      "score": [
        26,
        34
      ]
    },
    "2016-10-28": {
      "wk": "8",
      "date": "2016-10-28",
      "op": "jax",
      "victory": true,
      "score": [
        36,
        22
      ]
    },
    "2016-11-13": {
      "wk": "10",
      "date": "2016-11-13",
      "op": "gb",
      "victory": true,
      "score": [
        47,
        25
      ]
    },
    "2016-11-20": {
      "wk": "11",
      "date": "2016-11-20",
      "op": "ind",
      "victory": false,
      "score": [
        17,
        24
      ]
    },
    "2016-11-27": {
      "wk": "12",
      "date": "2016-11-27",
      "op": "chi",
      "victory": true,
      "score": [
        27,
        21
      ]
    },
    "2016-12-11": {
      "wk": "14",
      "date": "2016-12-11",
      "op": "den",
      "victory": true,
      "score": [
        13,
        10
      ]
    },
    "2016-12-18": {
      "wk": "15",
      "date": "2016-12-18",
      "op": "kc",
      "victory": true,
      "score": [
        19,
        17
      ]
    },
    "2016-12-24": {
      "wk": "16",
      "date": "2016-12-24",
      "op": "jax",
      "victory": false,
      "score": [
        17,
        38
      ]
    },
    "2017-01-01": {
      "wk": "17",
      "date": "2017-01-01",
      "op": "hou",
      "victory": true,
      "score": [
        24,
        17
      ]
    }
  },
  "hou": {
    "2016-09-11": {
      "wk": "1",
      "date": "2016-09-11",
      "op": "chi",
      "victory": true,
      "score": [
        23,
        14
      ]
    },
    "2016-09-18": {
      "wk": "2",
      "date": "2016-09-18",
      "op": "kc",
      "victory": true,
      "score": [
        19,
        12
      ]
    },
    "2016-09-23": {
      "wk": "3",
      "date": "2016-09-23",
      "op": "ne",
      "victory": false,
      "score": [
        0,
        27
      ]
    },
    "2016-10-02": {
      "wk": "4",
      "date": "2016-10-02",
      "op": "ten",
      "victory": true,
      "score": [
        27,
        20
      ]
    },
    "2016-10-09": {
      "wk": "5",
      "date": "2016-10-09",
      "op": "min",
      "victory": false,
      "score": [
        13,
        31
      ]
    },
    "2016-10-17": {
      "wk": "6",
      "date": "2016-10-17",
      "op": "ind",
      "victory": true,
      "score": [
        26,
        23
      ]
    },
    "2016-10-25": {
      "wk": "7",
      "date": "2016-10-25",
      "op": "den",
      "victory": false,
      "score": [
        9,
        27
      ]
    },
    "2016-10-30": {
      "wk": "8",
      "date": "2016-10-30",
      "op": "det",
      "victory": true,
      "score": [
        20,
        13
      ]
    },
    "2016-11-13": {
      "wk": "10",
      "date": "2016-11-13",
      "op": "jax",
      "victory": true,
      "score": [
        24,
        21
      ]
    },
    "2016-12-04": {
      "wk": "13",
      "date": "2016-12-04",
      "op": "gb",
      "victory": false,
      "score": [
        13,
        21
      ]
    },
    "2016-12-11": {
      "wk": "14",
      "date": "2016-12-11",
      "op": "ind",
      "victory": true,
      "score": [
        22,
        17
      ]
    },
    "2016-12-18": {
      "wk": "15",
      "date": "2016-12-18",
      "op": "jax",
      "victory": true,
      "score": [
        21,
        20
      ]
    },
    "2016-12-25": {
      "wk": "16",
      "date": "2016-12-25",
      "op": "cin",
      "victory": true,
      "score": [
        12,
        10
      ]
    },
    "2017-01-01": {
      "wk": "17",
      "date": "2017-01-01",
      "op": "ten",
      "victory": false,
      "score": [
        17,
        24
      ]
    }
  }
}