{
  "2021-10-19": [
    {
      "tor": 1.78,
      "draw": 4.2,
      "nyr": 3.4
    },
    {
      "phi": 2.15,
      "draw": 4.1,
      "sea": 2.72
    },
    {
      "cgy": 1.78,
      "draw": 4.2,
      "ana": 3.6
    },
    {
      "ari": 3.4,
      "draw": 4.1,
      "stl": 1.85
    }
  ],
  "2021-10-20": [
    {
      "tb": 2.2,
      "draw": 3.9,
      "fla": 2.6
    },
    {
      "pit": 2.1,
      "draw": 3.9,
      "dal": 2.75
    },
    {
      "nj": 1.95,
      "draw": 4,
      "sea": 3
    },
    {
      "mtl": 1.95,
      "draw": 4,
      "sj": 2.95
    },
    {
      "wsh": 2.45,
      "draw": 3.9,
      "col": 2.3
    },
    {
      "buf": 2.9,
      "draw": 4,
      "van": 1.95
    },
    {
      "det": 2.2,
      "draw": 3.8,
      "cbj": 2.6
    },
    {
      "nsh": 2,
      "draw": 3.9,
      "la": 2.9
    },
    {
      "min": 1.95,
      "draw": 4,
      "wpg": 2.95
    },
    {
      "chi": 2.5,
      "draw": 3.8,
      "nyi": 2.25
    },
    {
      "edm": 1.52,
      "draw": 4.5,
      "ana": 4.5
    }
  ],
  "2021-10-21": [
    {
      "phi": 2.8,
      "draw": 4,
      "bos": 2.05
    },
    {
      "vgk": 2.15,
      "draw": 4,
      "stl": 2.6
    }
  ],
  "2021-10-22": [
    {
      "nj": 2.65,
      "draw": 4.2,
      "wsh": 2.15
    },
    {
      "mtl": 2.7,
      "draw": 4,
      "car": 2.2
    },
    {
      "fla": 2.35,
      "draw": 4.2,
      "col": 2.4
    },
    {
      "cbj": 2.85,
      "draw": 4,
      "nyi": 2.1
    },
    {
      "ott": 2.4,
      "draw": 4,
      "sj": 2.4
    },
    {
      "det": 2.7,
      "draw": 4.1,
      "cgy": 2.15
    },
    {
      "wpg": 1.78,
      "draw": 4.25,
      "ana": 3.6
    },
    {
      "nsh": 2.35,
      "draw": 4,
      "nyr": 2.5
    },
    {
      "chi": 2.15,
      "draw": 4.1,
      "van": 2.65
    },
    {
      "ari": 3.4,
      "draw": 4.2,
      "edm": 1.82
    }
  ],
  "2021-10-23": [
    {
      "tor": 1.85,
      "draw": 4.2,
      "sj": 3.4
    },
    {
      "buf": 3.15,
      "draw": 4.1,
      "bos": 1.9
    },
    {
      "dal": 2.05,
      "draw": 4.1,
      "la": 2.9
    },
    {
      "vgk": 1.9,
      "draw": 4.2,
      "edm": 3.2
    }
  ],
  "2021-10-24": [
    {
      "bos": 1.73,
      "draw": 4.33,
      "sj": 3.57
    }
  ],
  "2021-10-25": [
    {
      "min": 1.85,
      "draw": 4.1,
      "nsh": 3.25
    },
    {
      "chi": 1.89,
      "draw": 4.15,
      "det": 3.13
    },
    {
      "vgk": 2.16,
      "draw": 3.93,
      "nyi": 2.68
    }
  ],
  "2021-10-26": [
    {
      "buf": 3.77,
      "draw": 4.4,
      "tb": 1.7
    },
    {
      "ott": 3.12,
      "draw": 4.18,
      "wsh": 1.92
    },
    {
      "fla": 1.45,
      "draw": 4.85,
      "ari": 5.4
    },
    {
      "car": 2.31,
      "draw": 4.12,
      "tor": 2.47
    },
    {
      "nyr": 2.08,
      "draw": 4.03,
      "cgy": 2.86
    },
    {
      "cbj": 2.8,
      "draw": 3.88,
      "dal": 2.15
    },
    {
      "stl": 1.8,
      "draw": 4.2,
      "la": 3.5
    }
  ],
  "2021-10-27": [
    {
      "pit": 2.74,
      "draw": 3.95,
      "tb": 2.16
    },
    {
      "nj": 2.29,
      "draw": 4,
      "cgy": 2.54
    },
    {
      "col": 1.82,
      "draw": 4.32,
      "vgk": 3.33
    },
    {
      "nsh": 2.1,
      "draw": 4.12,
      "sj": 2.76
    },
    {
      "ana": 2.79,
      "draw": 3.97,
      "wpg": 2.13
    },
    {
      "van": 2.63,
      "draw": 3.93,
      "min": 2.24
    },
    {
      "sea": 2.22,
      "draw": 3.95,
      "mtl": 2.67
    }
  ],
  "2021-10-28": [
    {
      "wsh": 1.74,
      "draw": 4.47,
      "det": 3.57
    },
    {
      "fla": 2.17,
      "draw": 4.03,
      "bos": 2.69
    },
    {
      "chi": 3.15,
      "draw": 4.3,
      "tor": 1.88
    },
    {
      "dal": 2.41,
      "draw": 4.07,
      "vgk": 2.39
    },
    {
      "edm": 1.9,
      "draw": 4.4,
      "phi": 3.08
    }
  ],
  "2021-10-29": [
    {
      "tb": 1.48,
      "draw": 4.7,
      "ari": 5.2
    },
    {
      "car": 2.11,
      "draw": 4.02,
      "bos": 2.8
    },
    {
      "pit": 2.37,
      "draw": 3.95,
      "cgy": 2.47
    },
    {
      "stl": 2.57,
      "draw": 4.03,
      "col": 2.25
    },
    {
      "sea": 2.46,
      "draw": 3.98,
      "min": 2.37
    },
    {
      "van": 2.09,
      "draw": 4.15,
      "phi": 2.78
    },
    {
      "ana": 2.08,
      "draw": 4.05,
      "buf": 2.83
    },
    {
      "sj": 2.18,
      "draw": 3.97,
      "mtl": 2.71
    },
    {
      "la": 2.41,
      "draw": 4,
      "wpg": 2.41
    }
  ],
  "2021-10-30": [
    {
      "wsh": 1.58,
      "draw": 4.57,
      "ari": 4.42
    },
    {
      "car": 1.78,
      "draw": 4.27,
      "chi": 3.53
    },
    {
      "det": 3.27,
      "draw": 4.35,
      "fla": 1.84
    },
    {
      "nyr": 1.91,
      "draw": 4.03,
      "cbj": 3.25
    },
    {
      "vgk": 1.6,
      "draw": 4.47,
      "ana": 4.32
    },
    {
      "dal": 1.91,
      "draw": 4.18,
      "ott": 3.15
    },
    {
      "nsh": 2.35,
      "draw": 3.78,
      "nyi": 2.57
    },
    {
      "la": 2.18,
      "draw": 3.92,
      "mtl": 2.72
    }
  ],
  "2021-10-31": [
    {
      "pit": 2.02,
      "draw": 3.98,
      "nj": 3
    },
    {
      "sj": 2.18,
      "draw": 3.97,
      "wpg": 2.72
    },
    {
      "tor": 1.62,
      "draw": 4.35,
      "det": 4.32
    },
    {
      "stl": 1.83,
      "draw": 4.08,
      "chi": 3.47
    },
    {
      "col": 1.97,
      "draw": 4,
      "min": 3.08
    },
    {
      "van": 3.05,
      "draw": 4.05,
      "edm": 1.98
    },
    {
      "cgy": 2.17,
      "draw": 3.97,
      "phi": 2.73
    },
    {
      "car": 1.45,
      "draw": 5.1,
      "ari": 5.6
    },
    {
      "la": 2.17,
      "draw": 4.12,
      "buf": 2.81
    },
    {
      "ana": 2.61,
      "draw": 4.15,
      "mtl": 2.3
    },
    {
      "nj": 2.31,
      "draw": 4.1,
      "cbj": 2.62
    }
  ],
  "2021-11-01": [
    {
      "sea": 2.53,
      "draw": 4.08,
      "nyr": 2.39
    }
  ],
  "2021-11-02": [
    {
      "tb": 2.07,
      "draw": 4.23,
      "wsh": 2.93
    },
    {
      "chi": 2.2,
      "draw": 4.12,
      "ott": 2.76
    },
    {
      "edm": 1.65,
      "draw": 4.57,
      "sea": 4.23
    }
  ],
  "2021-11-03": [
    {
      "tor": 2.1,
      "draw": 4.03,
      "vgk": 2.8
    },
    {
      "mtl": 2,
      "draw": 3.98,
      "det": 3.03
    },
    {
      "min": 1.78,
      "draw": 4.12,
      "ott": 3.62
    },
    {
      "wpg": 2.23,
      "draw": 3.88,
      "dal": 2.67
    },
    {
      "van": 2.49,
      "draw": 3.9,
      "nyr": 2.37
    },
    {
      "ana": 2.39,
      "draw": 3.88,
      "nj": 2.48
    },
    {
      "sj": 1.92,
      "draw": 4.1,
      "buf": 3.15
    }
  ],
  "2021-11-06": [
    {
      "wpg": 2.02,
      "draw": 4.28,
      "chi": 3.02
    },
    {
      "edm": 2.04,
      "draw": 4.27,
      "nyr": 2.99
    },
    {
      "ana": 1.88,
      "draw": 4.15,
      "ari": 3.47
    },
    {
      "van": 2.2,
      "draw": 3.95,
      "nsh": 2.85
    },
    {
      "la": 2.21,
      "draw": 4.07,
      "nj": 2.77
    },
    {
      "ott": 3.5,
      "draw": 4.17,
      "tb": 1.81
    },
    {
      "fla": 2.15,
      "draw": 4.2,
      "car": 2.81
    }
  ],
  "2021-11-07": [
    {
      "wsh": 1.96,
      "draw": 4.3,
      "phi": 3.17
    },
    {
      "cbj": 3.45,
      "draw": 4.22,
      "col": 1.87
    },
    {
      "wpg": 2.73,
      "draw": 4.05,
      "nyi": 2.24
    },
    {
      "tor": 2.21,
      "draw": 4.1,
      "bos": 2.74
    },
    {
      "mtl": 2.55,
      "draw": 4,
      "vgk": 2.39
    },
    {
      "buf": 2.41,
      "draw": 4.05,
      "det": 2.51
    },
    {
      "pit": 2.23,
      "draw": 4.1,
      "min": 2.72
    },
    {
      "cgy": 2.01,
      "draw": 4.08,
      "nyr": 3.15
    },
    {
      "ari": 3.63,
      "draw": 4.13,
      "sea": 1.84
    },
    {
      "sj": 2.15,
      "draw": 4.12,
      "nj": 2.84
    }
  ],
  "2021-11-08": [
    {
      "det": 2.59,
      "draw": 4.08,
      "vgk": 2.33
    },
    {
      "chi": 2.39,
      "draw": 4.12,
      "nsh": 2.5
    },
    {
      "ana": 3.1,
      "draw": 4.12,
      "stl": 2.02
    },
    {
      "min": 2.5,
      "draw": 4.05,
      "nyi": 2.42
    },
    {
      "van": 2.62,
      "draw": 3.93,
      "dal": 2.35
    }
  ],
  "2021-11-09": [
    {
      "wsh": 1.62,
      "draw": 4.55,
      "buf": 4.5
    },
    {
      "nyr": 2.5,
      "draw": 4.1,
      "fla": 2.4
    },
    {
      "tor": 1.62,
      "draw": 4.62,
      "la": 4.63
    }
  ],
  "2021-11-10": [
    {
      "bos": 1.51,
      "draw": 4.82,
      "ott": 5.2
    },
    {
      "tb": 2.2,
      "draw": 4.1,
      "car": 2.76
    },
    {
      "nj": 2.83,
      "draw": 4.22,
      "fla": 2.13
    },
    {
      "mtl": 2.13,
      "draw": 4.03,
      "la": 2.91
    },
    {
      "det": 3.18,
      "draw": 4.33,
      "edm": 1.94
    },
    {
      "wpg": 2.35,
      "draw": 4.1,
      "stl": 2.56
    },
    {
      "chi": 2.72,
      "draw": 4.25,
      "pit": 2.19
    },
    {
      "cgy": 1.69,
      "draw": 4.43,
      "sj": 4.13
    },
    {
      "vgk": 2.3,
      "draw": 4.07,
      "sea": 2.63
    },
    {
      "van": 2.07,
      "draw": 4.1,
      "ana": 3.02
    }
  ],
  "2021-11-11": [
    {
      "phi": 2.79,
      "draw": 4.18,
      "tor": 2.16
    },
    {
      "dal": 2.03,
      "draw": 4.07,
      "nsh": 3.1
    },
    {
      "ari": 3.92,
      "draw": 4.47,
      "min": 1.72
    }
  ],
  "2021-11-12": [
    {
      "pit": 2.64,
      "draw": 4.1,
      "fla": 2.29
    },
    {
      "ott": 2.56,
      "draw": 4.13,
      "la": 2.34
    },
    {
      "bos": 2.05,
      "draw": 4.27,
      "edm": 2.96
    },
    {
      "mtl": 2.93,
      "draw": 4.1,
      "cgy": 2.11
    },
    {
      "nj": 2.73,
      "draw": 4.03,
      "nyi": 2.24
    },
    {
      "det": 2.85,
      "draw": 4.15,
      "wsh": 2.13
    },
    {
      "stl": 1.9,
      "draw": 4.13,
      "nsh": 3.45
    },
    {
      "wpg": 1.86,
      "draw": 4.3,
      "sj": 3.45
    },
    {
      "col": 1.87,
      "draw": 4.22,
      "van": 3.48
    },
    {
      "sea": 1.93,
      "draw": 4.17,
      "ana": 3.3
    },
    {
      "vgk": 2.35,
      "draw": 4.05,
      "min": 2.58
    }
  ],
  "2021-11-13": [
    {
      "car": 1.9,
      "draw": 4.3,
      "phi": 3.33
    },
    {
      "buf": 3.27,
      "draw": 4.4,
      "edm": 1.9
    },
    {
      "tor": 1.93,
      "draw": 4.3,
      "cgy": 3.23
    },
    {
      "cbj": 2.69,
      "draw": 4.12,
      "wsh": 2.25
    },
    {
      "chi": 1.72,
      "draw": 4.45,
      "ari": 3.95
    },
    {
      "nj": 3.1,
      "draw": 4.12,
      "bos": 2.02
    }
  ],
  "2021-11-14": [
    {
      "wpg": 1.86,
      "draw": 4.3,
      "la": 3.45
    },
    {
      "det": 2.25,
      "draw": 4.05,
      "mtl": 2.71
    },
    {
      "buf": 3.6,
      "draw": 4.33,
      "tor": 1.82
    },
    {
      "tb": 2.31,
      "draw": 4.13,
      "fla": 2.59
    },
    {
      "cbj": 2.87,
      "draw": 4.05,
      "nyr": 2.15
    },
    {
      "car": 2.1,
      "draw": 4.17,
      "stl": 2.9
    },
    {
      "nsh": 1.5,
      "draw": 4.75,
      "ari": 5.5
    },
    {
      "dal": 2.01,
      "draw": 4.1,
      "phi": 3.13
    },
    {
      "col": 1.67,
      "draw": 4.63,
      "sj": 4.05
    },
    {
      "vgk": 2.01,
      "draw": 4.17,
      "van": 3.1
    },
    {
      "sea": 2.65,
      "draw": 4.08,
      "min": 2.29
    },
    {
      "ott": 3.55,
      "draw": 4.32,
      "cgy": 1.83
    }
  ],
  "2021-11-15": [
    {
      "bos": 1.77,
      "draw": 4.22,
      "mtl": 3.88
    },
    {
      "wsh": 1.95,
      "draw": 4.2,
      "pit": 3.25
    },
    {
      "nyr": 2.05,
      "draw": 4.1,
      "nj": 3.05
    },
    {
      "stl": 2.38,
      "draw": 4.05,
      "edm": 2.54
    },
    {
      "ana": 2.21,
      "draw": 4.08,
      "van": 2.75
    }
  ],
  "2021-11-16": [
    {
      "tb": 2.17,
      "draw": 4.03,
      "nyi": 2.85
    },
    {
      "cbj": 2.21,
      "draw": 4.07,
      "det": 2.77
    }
  ],
  "2021-11-17": [
    {
      "nj": 1.92,
      "draw": 4.13,
      "ott": 3.15
    },
    {
      "nyr": 1.77,
      "draw": 4.5,
      "mtl": 3.7
    },
    {
      "fla": 1.89,
      "draw": 4.3,
      "nyi": 3.35
    },
    {
      "tor": 1.83,
      "draw": 4.28,
      "nsh": 3.6
    },
    {
      "pit": 1.59,
      "draw": 4.63,
      "buf": 4.63
    },
    {
      "phi": 2.54,
      "draw": 4.05,
      "cgy": 2.38
    },
    {
      "stl": 1.45,
      "draw": 5,
      "ari": 5.95
    },
    {
      "min": 1.87,
      "draw": 4.35,
      "sj": 3.38
    },
    {
      "wpg": 2.43,
      "draw": 4.23,
      "edm": 2.43
    },
    {
      "dal": 1.83,
      "draw": 4.25,
      "det": 3.58
    },
    {
      "ana": 2.68,
      "draw": 4.08,
      "wsh": 2.26
    },
    {
      "vgk": 2.86,
      "draw": 4.1,
      "car": 2.15
    }
  ],
  "2021-11-19": [
    {
      "fla": 1.78,
      "draw": 4.47,
      "nj": 3.65
    },
    {
      "tor": 1.87,
      "draw": 4.32,
      "nyr": 3.42
    },
    {
      "phi": 2.76,
      "draw": 4.07,
      "tb": 2.21
    },
    {
      "buf": 3.55,
      "draw": 4.23,
      "cgy": 1.84
    },
    {
      "mtl": 3.1,
      "draw": 4.25,
      "pit": 1.99
    },
    {
      "stl": 2.01,
      "draw": 4.23,
      "sj": 3.05
    },
    {
      "min": 2.18,
      "draw": 4.08,
      "dal": 2.81
    },
    {
      "edm": 2.07,
      "draw": 4.33,
      "wpg": 2.89
    },
    {
      "ari": 3.17,
      "draw": 4.13,
      "cbj": 1.99
    },
    {
      "ana": 3.15,
      "draw": 4.13,
      "car": 2
    },
    {
      "vgk": 1.97,
      "draw": 4.23,
      "det": 3.17
    }
  ],
  "2021-11-18": [
    {
      "van": 3,
      "draw": 4.18,
      "col": 1.97
    },
    {
      "sea": 2.05,
      "draw": 4.02,
      "chi": 2.9
    },
    {
      "la": 2.69,
      "draw": 4.03,
      "wsh": 2.17
    }
  ],
  "2021-11-20": [
    {
      "sea": 2.99,
      "draw": 4.3,
      "col": 1.95
    },
    {
      "van": 2.65,
      "draw": 4.02,
      "wpg": 2.2
    }
  ],
  "2021-11-21": [
    {
      "sj": 2.73,
      "draw": 3.97,
      "wsh": 2.17
    },
    {
      "tb": 1.98,
      "draw": 4.15,
      "min": 3.17
    }
  ],
  "2021-11-22": [
    {
      "nyr": 1.63,
      "draw": 4.53,
      "buf": 4.47
    },
    {
      "bos": 1.95,
      "draw": 4.12,
      "cgy": 3.28
    },
    {
      "nyi": 2.64,
      "draw": 4.05,
      "tor": 2.32
    },
    {
      "van": 2.13,
      "draw": 4.18,
      "chi": 2.85
    },
    {
      "sea": 2.81,
      "draw": 4.15,
      "wsh": 2.16
    },
    {
      "la": 1.77,
      "draw": 4.27,
      "ari": 3.85
    }
  ],
  "2021-11-23": [
    {
      "buf": 2.48,
      "draw": 3.98,
      "cbj": 2.35
    },
    {
      "stl": 2.23,
      "draw": 3.97,
      "vgk": 2.64
    },
    {
      "nsh": 2.11,
      "draw": 3.98,
      "ana": 2.83
    },
    {
      "col": 1.37,
      "draw": 5.2,
      "ott": 6.4
    },
    {
      "wpg": 2.26,
      "draw": 3.95,
      "pit": 2.6
    },
    {
      "sj": 2.86,
      "draw": 4.03,
      "car": 2.08
    }
  ],
  "2021-11-24": [
    {
      "tb": 1.86,
      "draw": 4.32,
      "phi": 3.42
    },
    {
      "dal": 2.34,
      "draw": 4.2,
      "edm": 2.53
    },
    {
      "cgy": 1.73,
      "draw": 4.42,
      "chi": 3.93
    }
  ],
  "2021-11-25": [
    {
      "wsh": 1.81,
      "draw": 4.38,
      "mtl": 3.57
    },
    {
      "fla": 1.7,
      "draw": 4.55,
      "phi": 3.98
    },
    {
      "pit": 1.74,
      "draw": 4.37,
      "van": 3.9
    },
    {
      "buf": 4.53,
      "draw": 4.53,
      "bos": 1.62
    },
    {
      "nj": 2.54,
      "draw": 4.22,
      "min": 2.33
    },
    {
      "cbj": 2.78,
      "draw": 4.07,
      "wpg": 2.2
    },
    {
      "det": 2.92,
      "draw": 4.15,
      "stl": 2.1
    },
    {
      "nyi": 2.73,
      "draw": 4.03,
      "nyr": 2.31
    },
    {
      "nsh": 2.29,
      "draw": 4.07,
      "vgk": 2.64
    },
    {
      "col": 1.67,
      "draw": 4.55,
      "ana": 4.13
    },
    {
      "sea": 3.1,
      "draw": 4.25,
      "car": 1.99
    },
    {
      "ari": 3.87,
      "draw": 4.67,
      "edm": 1.7
    },
    {
      "la": 3.33,
      "draw": 4.2,
      "tor": 1.92
    },
    {
      "sj": 1.91,
      "draw": 4.32,
      "ott": 3.3
    }
  ],
  "2021-11-26": [
    {
      "bos": 2.03,
      "draw": 4.12,
      "nyr": 2.91
    },
    {
      "min": 2.19,
      "draw": 4.08,
      "wpg": 2.65
    },
    {
      "phi": 2.73,
      "draw": 4.2,
      "car": 2.1
    },
    {
      "ana": 1.86,
      "draw": 4.23,
      "ott": 3.28
    },
    {
      "wsh": 2.19,
      "draw": 4.13,
      "fla": 2.62
    }
  ],
  "2021-11-27": [
    {
      "nsh": 1.87,
      "draw": 4.23,
      "nj": 3.22
    },
    {
      "tb": 1.73,
      "draw": 4.45,
      "sea": 3.58
    },
    {
      "cbj": 2.13,
      "draw": 4.08,
      "van": 2.73
    },
    {
      "buf": 2.41,
      "draw": 4.03,
      "mtl": 2.4
    },
    {
      "dal": 2.76,
      "draw": 4.15,
      "col": 2.1
    },
    {
      "nyi": 3,
      "draw": 4.15,
      "pit": 1.98
    },
    {
      "sj": 3.05,
      "draw": 4.23,
      "tor": 1.93
    }
  ],
  "2021-11-28": [
    {
      "fla": 1.82,
      "draw": 4.42,
      "sea": 3.53
    },
    {
      "pit": 1.78,
      "draw": 4.35,
      "mtl": 3.72
    },
    {
      "la": 1.71,
      "draw": 4.37,
      "ott": 4.03
    },
    {
      "vgk": 2.27,
      "draw": 4.28,
      "edm": 2.59
    },
    {
      "det": 1.9,
      "draw": 4.2,
      "buf": 3.4
    },
    {
      "stl": 1.95,
      "draw": 4.17,
      "cbj": 3.25
    },
    {
      "ari": 3.75,
      "draw": 4.15,
      "dal": 1.81
    },
    {
      "col": 1.78,
      "draw": 4.37,
      "nsh": 3.73
    },
    {
      "cgy": 1.94,
      "draw": 4.18,
      "wpg": 3.27
    },
    {
      "car": 2.16,
      "draw": 3.9,
      "wsh": 2.77
    },
    {
      "min": 2.5,
      "draw": 3.9,
      "tb": 2.36
    }
  ],
  "2021-11-29": [
    {
      "bos": 1.54,
      "draw": 4.73,
      "van": 5.05
    },
    {
      "chi": 2.29,
      "draw": 4.12,
      "sj": 2.63
    },
    {
      "nj": 2.07,
      "draw": 4.25,
      "phi": 2.92
    },
    {
      "ana": 3.45,
      "draw": 4.17,
      "tor": 1.89
    }
  ],
  "2021-11-30": [
    {
      "buf": 2.89,
      "draw": 4.07,
      "sea": 2.05
    },
    {
      "wpg": 1.52,
      "draw": 4.6,
      "ari": 4.9
    },
    {
      "mtl": 2.12,
      "draw": 4.05,
      "van": 2.77
    },
    {
      "cgy": 2.08,
      "draw": 4.03,
      "pit": 2.86
    }
  ],
  "2021-12-03": [
    {
      "wsh": 1.78,
      "draw": 4.52,
      "chi": 3.6
    },
    {
      "fla": 1.52,
      "draw": 4.83,
      "buf": 5.2
    },
    {
      "car": 1.49,
      "draw": 4.92,
      "ott": 5.45
    },
    {
      "tb": 2.11,
      "draw": 4.18,
      "stl": 2.89
    },
    {
      "mtl": 3.25,
      "draw": 4.4,
      "col": 1.9
    },
    {
      "nyi": 2.14,
      "draw": 4.03,
      "sj": 2.89
    },
    {
      "min": 1.94,
      "draw": 4.4,
      "nj": 3.17
    },
    {
      "nsh": 2.58,
      "draw": 3.8,
      "bos": 2.45
    },
    {
      "dal": 1.81,
      "draw": 4.22,
      "cbj": 3.7
    },
    {
      "la": 3.1,
      "draw": 4.13,
      "cgy": 2.02
    }
  ],
  "2021-12-04": [
    {
      "nyr": 1.91,
      "draw": 4.05,
      "sj": 3.23
    },
    {
      "wpg": 1.94,
      "draw": 4.08,
      "nj": 3.12
    },
    {
      "ari": 3.52,
      "draw": 4.2,
      "vgk": 1.79
    },
    {
      "sea": 2.59,
      "draw": 4.13,
      "edm": 2.21
    },
    {
      "ana": 2.7,
      "draw": 3.97,
      "cgy": 2.19
    },
    {
      "fla": 2.12,
      "draw": 4.03,
      "stl": 2.78
    }
  ],
  "2021-12-05": [
    {
      "wsh": 1.88,
      "draw": 4.08,
      "cbj": 3.3
    },
    {
      "ott": 3.93,
      "draw": 4.17,
      "col": 1.71
    },
    {
      "det": 2.48,
      "draw": 3.7,
      "nyi": 2.46
    },
    {
      "min": 2.35,
      "draw": 3.8,
      "tor": 2.56
    },
    {
      "bos": 2.29,
      "draw": 3.8,
      "tb": 2.63
    },
    {
      "nsh": 1.97,
      "draw": 4,
      "mtl": 3.12
    },
    {
      "car": 1.62,
      "draw": 4.28,
      "buf": 4.38
    },
    {
      "nyr": 1.95,
      "draw": 4.02,
      "chi": 3.13
    },
    {
      "van": 2.98,
      "draw": 3.9,
      "pit": 2.05
    }
  ],
  "2021-12-06": [
    {
      "phi": 2.47,
      "draw": 4.12,
      "tb": 2.42
    },
    {
      "cbj": 2.52,
      "draw": 4,
      "sj": 2.42
    },
    {
      "nyi": 2.06,
      "draw": 4.08,
      "chi": 3.05
    },
    {
      "edm": 1.72,
      "draw": 4.65,
      "la": 3.82
    },
    {
      "wpg": 2.35,
      "draw": 4.22,
      "tor": 2.52
    },
    {
      "vgk": 2.23,
      "draw": 4.13,
      "cgy": 2.7
    }
  ],
  "2021-12-07": [
    {
      "wsh": 1.73,
      "draw": 4.4,
      "ana": 3.63
    },
    {
      "phi": 3.52,
      "draw": 4.42,
      "col": 1.76
    },
    {
      "nj": 1.77,
      "draw": 4.4,
      "ott": 3.47
    },
    {
      "dal": 1.46,
      "draw": 4.9,
      "ari": 5.8
    },
    {
      "sea": 2.66,
      "draw": 4.13,
      "pit": 2.26
    },
    {
      "van": 2.08,
      "draw": 4.15,
      "la": 2.95
    }
  ],
  "2021-12-08": [
    {
      "mtl": 3.93,
      "draw": 4.4,
      "tb": 1.73
    },
    {
      "ott": 3.12,
      "draw": 4.08,
      "nyi": 2.02
    },
    {
      "det": 2.76,
      "draw": 4,
      "nsh": 2.24
    },
    {
      "tor": 1.6,
      "draw": 4.62,
      "cbj": 4.62
    },
    {
      "buf": 2.69,
      "draw": 4.15,
      "ana": 2.24
    },
    {
      "stl": 2.98,
      "draw": 4.23,
      "fla": 2.05
    },
    {
      "wpg": 2.45,
      "draw": 4.08,
      "car": 2.45
    },
    {
      "chi": 2.68,
      "draw": 4.17,
      "nyr": 2.24
    },
    {
      "edm": 2.26,
      "draw": 4.33,
      "min": 2.59
    },
    {
      "sj": 3.07,
      "draw": 4.08,
      "cgy": 2.05
    }
  ],
  "2021-12-09": [
    {
      "nyr": 2.86,
      "draw": 4.07,
      "col": 2.06
    },
    {
      "nj": 2.11,
      "draw": 4.07,
      "phi": 2.78
    },
    {
      "van": 2.95,
      "draw": 4.08,
      "bos": 2.02
    },
    {
      "vgk": 2.1,
      "draw": 3.98,
      "dal": 2.83
    }
  ],
  "2021-12-10": [
    {
      "tor": 2.11,
      "draw": 4.13,
      "tb": 2.91
    },
    {
      "cbj": 2.42,
      "draw": 4.15,
      "ana": 2.47
    },
    {
      "mtl": 2.86,
      "draw": 4.05,
      "chi": 2.16
    },
    {
      "nyi": 2.27,
      "draw": 3.98,
      "nsh": 2.72
    },
    {
      "stl": 1.87,
      "draw": 4.37,
      "det": 3.38
    },
    {
      "edm": 2.28,
      "draw": 4.23,
      "bos": 2.6
    },
    {
      "cgy": 2.16,
      "draw": 4.07,
      "car": 2.84
    },
    {
      "sea": 2.52,
      "draw": 4.2,
      "wpg": 2.35
    },
    {
      "sj": 2.88,
      "draw": 4.2,
      "min": 2.1
    },
    {
      "la": 2.69,
      "draw": 3.97,
      "dal": 2.29
    }
  ],
  "2021-12-11": [
    {
      "buf": 3.07,
      "draw": 4.18,
      "nyr": 1.94
    },
    {
      "wsh": 2.12,
      "draw": 4.13,
      "pit": 2.74
    },
    {
      "nj": 2.7,
      "draw": 4.1,
      "nsh": 2.15
    },
    {
      "col": 1.49,
      "draw": 4.8,
      "det": 5
    },
    {
      "ari": 4.77,
      "draw": 4.65,
      "fla": 1.53
    },
    {
      "vgk": 1.71,
      "draw": 4.38,
      "phi": 3.73
    },
    {
      "van": 2.33,
      "draw": 3.97,
      "wpg": 2.51
    },
    {
      "ott": 3.75,
      "draw": 4.6,
      "tb": 1.74
    }
  ],
  "2021-12-12": [
    {
      "tor": 1.6,
      "draw": 4.6,
      "chi": 4.58
    },
    {
      "stl": 1.7,
      "draw": 4.62,
      "mtl": 3.93
    },
    {
      "buf": 3.92,
      "draw": 4.63,
      "wsh": 1.7
    },
    {
      "pit": 2,
      "draw": 4.25,
      "ana": 3.08
    },
    {
      "nyi": 1.99,
      "draw": 4.12,
      "nj": 3.18
    },
    {
      "ari": 3.02,
      "draw": 4.25,
      "phi": 2.03
    },
    {
      "edm": 2.28,
      "draw": 4.23,
      "car": 2.59
    },
    {
      "cgy": 2.21,
      "draw": 4.03,
      "bos": 2.79
    },
    {
      "sea": 1.97,
      "draw": 4.28,
      "cbj": 3.12
    },
    {
      "la": 2.97,
      "draw": 4.22,
      "min": 2.06
    },
    {
      "sj": 2.67,
      "draw": 4.02,
      "dal": 2.29
    }
  ],
  "2021-12-13": [
    {
      "stl": 2.01,
      "draw": 4.02,
      "ana": 2.99
    },
    {
      "nyr": 2.03,
      "draw": 4,
      "nsh": 2.96
    },
    {
      "col": 2.11,
      "draw": 4.05,
      "fla": 2.77
    },
    {
      "vgk": 2.22,
      "draw": 3.88,
      "min": 2.69
    },
    {
      "van": 2.74,
      "draw": 3.95,
      "car": 2.17
    }
  ],
  "2021-12-14": [
    {
      "chi": 3.05,
      "draw": 4.13,
      "cgy": 2.04
    }
  ],
  "2021-12-15": [
    {
      "fla": 1.48,
      "draw": 4.83,
      "ott": 5
    },
    {
      "pit": 1.65,
      "draw": 4.28,
      "mtl": 4.15
    },
    {
      "tb": 1.73,
      "draw": 4.27,
      "la": 3.77
    },
    {
      "phi": 2.02,
      "draw": 4.02,
      "nj": 2.97
    },
    {
      "bos": 2.15,
      "draw": 4.02,
      "vgk": 2.72
    },
    {
      "det": 2.67,
      "draw": 4,
      "nyi": 2.19
    },
    {
      "wpg": 1.59,
      "draw": 4.42,
      "buf": 4.4
    },
    {
      "min": 2.33,
      "draw": 3.93,
      "car": 2.52
    },
    {
      "nsh": 2.27,
      "draw": 3.97,
      "cgy": 2.59
    },
    {
      "dal": 2.29,
      "draw": 3.93,
      "stl": 2.58
    },
    {
      "col": 1.73,
      "draw": 4.32,
      "nyr": 3.72
    },
    {
      "edm": 2.6,
      "draw": 4.07,
      "tor": 2.22
    },
    {
      "van": 2.14,
      "draw": 3.95,
      "cbj": 2.79
    },
    {
      "sj": 2.17,
      "draw": 4.02,
      "sea": 2.71
    }
  ],
  "2021-12-17": [
    {
      "nj": 3.37,
      "draw": 4.45,
      "vgk": 1.86
    },
    {
      "fla": 2.01,
      "draw": 4.27,
      "la": 3.05
    },
    {
      "tb": 1.62,
      "draw": 4.55,
      "ott": 4.47
    },
    {
      "car": 1.88,
      "draw": 4.27,
      "det": 3.4
    },
    {
      "mtl": 3.12,
      "draw": 4.27,
      "phi": 1.98
    },
    {
      "nyi": 2.4,
      "draw": 3.93,
      "bos": 2.57
    },
    {
      "min": 1.51,
      "draw": 4.92,
      "buf": 5.25
    },
    {
      "nsh": 3.38,
      "draw": 4.38,
      "col": 1.87
    },
    {
      "edm": 1.76,
      "draw": 4.65,
      "cbj": 3.6
    },
    {
      "sj": 2.22,
      "draw": 4.18,
      "van": 2.7
    }
  ],
  "2021-12-18": [
    {
      "pit": 1.64,
      "draw": 4.15,
      "buf": 4.38
    },
    {
      "nyr": 2.71,
      "draw": 4,
      "vgk": 2.17
    },
    {
      "stl": 2.15,
      "draw": 3.9,
      "dal": 2.79
    },
    {
      "wpg": 2.42,
      "draw": 3.97,
      "wsh": 2.41
    },
    {
      "chi": 2.52,
      "draw": 3.87,
      "nsh": 2.35
    },
    {
      "ana": 1.65,
      "draw": 4.15,
      "ari": 4.3
    }
  ],
  "2021-12-29": [
    {
      "tb": 1.59,
      "draw": 4.4,
      "mtl": 4.45
    },
    {
      "chi": 2.23,
      "draw": 4,
      "cbj": 2.62
    },
    {
      "sj": 1.69,
      "draw": 4.35,
      "ari": 3.85
    },
    {
      "la": 2.84,
      "draw": 4.03,
      "vgk": 2.09
    }
  ],
  "2022-01-07": [
    {
      "tb": 1.84,
      "draw": 4.42,
      "cgy": 3.43
    },
    {
      "bos": 1.95,
      "draw": 4.38,
      "min": 3.13
    },
    {
      "phi": 4.12,
      "draw": 4.68,
      "pit": 1.71
    },
    {
      "nj": 2.04,
      "draw": 4.3,
      "cbj": 2.97
    },
    {
      "buf": 2.56,
      "draw": 4.18,
      "sj": 2.32
    },
    {
      "dal": 2.71,
      "draw": 4.15,
      "fla": 2.22
    },
    {
      "col": 1.67,
      "draw": 4.7,
      "wpg": 4.05
    },
    {
      "ari": 3.17,
      "draw": 4.22,
      "chi": 1.97
    },
    {
      "vgk": 2.03,
      "draw": 4.27,
      "nyr": 3
    },
    {
      "la": 2.86,
      "draw": 4.1,
      "nsh": 2.14
    }
  ],
  "2022-01-08": [
    {
      "car": 2.01,
      "draw": 4.07,
      "cgy": 2.98
    },
    {
      "stl": 2.33,
      "draw": 4.05,
      "wsh": 2.47
    },
    {
      "dal": 2.31,
      "draw": 3.97,
      "pit": 2.53
    }
  ],
  "2022-01-09": [
    {
      "col": 2.17,
      "draw": 4.13,
      "tor": 2.65
    },
    {
      "car": 2.14,
      "draw": 4.15,
      "fla": 2.7
    },
    {
      "tb": 2.21,
      "draw": 4.05,
      "bos": 2.64
    },
    {
      "phi": 2.15,
      "draw": 4.13,
      "sj": 2.69
    },
    {
      "ari": 3.78,
      "draw": 4.35,
      "nsh": 1.71
    },
    {
      "min": 2.8,
      "draw": 4.13,
      "wsh": 2.08
    },
    {
      "vgk": 1.82,
      "draw": 4.22,
      "chi": 3.4
    },
    {
      "van": 1.94,
      "draw": 4.07,
      "ott": 3.15
    },
    {
      "ana": 2.42,
      "draw": 3.95,
      "nyr": 2.42
    },
    {
      "la": 2.11,
      "draw": 3.98,
      "det": 2.81
    }
  ],
  "2022-01-10": [
    {
      "ana": 2.17,
      "draw": 4.1,
      "det": 2.81
    }
  ],
  "2022-01-11": [
    {
      "wsh": 2.29,
      "draw": 4.02,
      "bos": 2.53
    },
    {
      "col": 1.39,
      "draw": 5.2,
      "sea": 6
    },
    {
      "la": 2.36,
      "draw": 3.97,
      "nyr": 2.47
    }
  ]
}